sim/rsicv.vcd
$date
	Tue Jul 12 21:35:01 2022
$end
$version
	Icarus Verilog
$end
$timescale
	1s
$end
$scope module tb_riscv $end
$var wire 32 ! x1 [31:0] $end
$var wire 32 " x2 [31:0] $end
$var wire 32 # x26 [31:0] $end
$var wire 32 $ x27 [31:0] $end
$var wire 32 % x29 [31:0] $end
$var wire 32 & x3 [31:0] $end
$var wire 32 ' x30 [31:0] $end
$var reg 1 ( clk $end
$var reg 1 ) rst_n $end
$var integer 32 * r [31:0] $end
$scope module m_riscv_soc $end
$var wire 1 ( clk $end
$var wire 1 ) rst_n $end
$var wire 32 + inst_addr [31:0] $end
$var wire 32 , inst [31:0] $end
$scope module m_rom $end
$var wire 32 - inst_o [31:0] $end
$var wire 32 . inst_addr_i [31:0] $end
$upscope $end
$scope module top $end
$var wire 1 ( clk $end
$var wire 32 / inst_i [31:0] $end
$var wire 1 ) rst_n $end
$var wire 32 0 regs_rs2_data [31:0] $end
$var wire 32 1 regs_rs1_data [31:0] $end
$var wire 32 2 pc_io [31:0] $end
$var wire 32 3 inst_addr_o [31:0] $end
$var wire 32 4 if_inst_addr [31:0] $end
$var wire 32 5 if_inst [31:0] $end
$var wire 32 6 if_id_inst_addr [31:0] $end
$var wire 32 7 if_id_inst [31:0] $end
$var wire 5 8 id_wd_addr [4:0] $end
$var wire 5 9 id_rs2_addr [4:0] $end
$var wire 5 : id_rs1_addr [4:0] $end
$var wire 1 ; id_reg_wen $end
$var wire 32 < id_op_2 [31:0] $end
$var wire 32 = id_op_1 [31:0] $end
$var wire 32 > id_inst_addr [31:0] $end
$var wire 32 ? id_inst [31:0] $end
$var wire 32 @ id_ex_rs2_data [31:0] $end
$var wire 32 A id_ex_rs1_data [31:0] $end
$var wire 1 B id_ex_rd_wen $end
$var wire 5 C id_ex_rd_addr [4:0] $end
$var wire 32 D id_ex_inst_addr [31:0] $end
$var wire 32 E id_ex_inst [31:0] $end
$var wire 1 F ex_rd_wen $end
$var wire 32 G ex_rd_data [31:0] $end
$var wire 5 H ex_rd_addr [4:0] $end
$var wire 1 I ex_jump_ena $end
$var wire 32 J ex_jump_addr [31:0] $end
$var wire 1 K ex_hold_flag $end
$var wire 1 L ctrl_jump_ena $end
$var wire 32 M ctrl_jump_addr [31:0] $end
$var wire 1 N ctrl_hold_flag $end
$scope module m_ctrl $end
$var wire 1 N hold_flag_o $end
$var wire 32 O jump_addr_o [31:0] $end
$var wire 1 L jump_ena_o $end
$var wire 1 I jump_ena_i $end
$var wire 32 P jump_addr_i [31:0] $end
$var wire 1 K hold_flag_i $end
$upscope $end
$scope module m_ex $end
$var wire 32 Q rs2_data_i [31:0] $end
$var wire 5 R rs2 [4:0] $end
$var wire 32 S rs1_data_i [31:0] $end
$var wire 5 T rs1 [4:0] $end
$var wire 1 B rd_wen_i $end
$var wire 5 U rd_addr_i [4:0] $end
$var wire 5 V rd [4:0] $end
$var wire 7 W opcode [6:0] $end
$var wire 1 X op1_i_less_than_op2_i_unsigned $end
$var wire 1 Y op1_i_less_than_op2_i_signed $end
$var wire 1 Z op1_i_equal_op2_i $end
$var wire 32 [ jump_imm [31:0] $end
$var wire 32 \ inst_i [31:0] $end
$var wire 32 ] inst_addr_i [31:0] $end
$var wire 7 ^ func7 [6:0] $end
$var wire 3 _ func3 [2:0] $end
$var reg 1 K hold_flag_o $end
$var reg 32 ` jump_addr_o [31:0] $end
$var reg 1 I jump_ena_o $end
$var reg 5 a rd_addr_o [4:0] $end
$var reg 32 b rd_data_o [31:0] $end
$var reg 1 F rd_wen_o $end
$upscope $end
$scope module m_id $end
$var wire 32 c inst_addr_o [31:0] $end
$var wire 32 d inst_o [31:0] $end
$var wire 32 e rs2_data_i [31:0] $end
$var wire 5 f rs2 [4:0] $end
$var wire 32 g rs1_data_i [31:0] $end
$var wire 5 h rs1 [4:0] $end
$var wire 5 i rd [4:0] $end
$var wire 7 j opcode [6:0] $end
$var wire 32 k inst_i [31:0] $end
$var wire 32 l inst_addr_i [31:0] $end
$var wire 7 m func7 [6:0] $end
$var wire 3 n func3 [2:0] $end
$var reg 32 o op_1_o [31:0] $end
$var reg 32 p op_2_o [31:0] $end
$var reg 1 ; reg_wen $end
$var reg 5 q rs1_addr_o [4:0] $end
$var reg 5 r rs2_addr_o [4:0] $end
$var reg 5 s wd_addr_o [4:0] $end
$upscope $end
$scope module m_id_ex $end
$var wire 1 ( clk $end
$var wire 1 N hold_flag_i $end
$var wire 32 t inst_addr_i [31:0] $end
$var wire 32 u inst_i [31:0] $end
$var wire 1 ; rd_wen_i $end
$var wire 32 v rs1_data_i [31:0] $end
$var wire 32 w rs2_data_i [31:0] $end
$var wire 1 ) rst_n $end
$var wire 5 x wd_addr_i [4:0] $end
$var reg 32 y inst_addr_o [31:0] $end
$var reg 32 z inst_o [31:0] $end
$var reg 5 { rd_addr_o [4:0] $end
$var reg 1 B rd_wen_o $end
$var reg 32 | rs1_data_o [31:0] $end
$var reg 32 } rs2_data_o [31:0] $end
$upscope $end
$scope module m_if_id $end
$var wire 1 ( clk $end
$var wire 1 N hold_flag_i $end
$var wire 1 ) rst_n $end
$var wire 32 ~ inst_i [31:0] $end
$var wire 32 !" inst_addr_i [31:0] $end
$var reg 32 "" inst_addr_o [31:0] $end
$var reg 32 #" inst_o [31:0] $end
$upscope $end
$scope module m_ifeach $end
$var wire 32 $" if_rom_addr_o [31:0] $end
$var wire 32 %" inst_addr_o [31:0] $end
$var wire 32 &" inst_o [31:0] $end
$var wire 32 '" rom_inst_i [31:0] $end
$var wire 32 (" pc_addr_i [31:0] $end
$upscope $end
$scope module m_pc_reg $end
$var wire 1 ( clk $end
$var wire 32 )" jump_addr_i [31:0] $end
$var wire 1 L jump_ena_i $end
$var wire 1 ) rst_n $end
$var reg 32 *" pc_o [31:0] $end
$upscope $end
$scope module m_regs $end
$var wire 1 ( clk $end
$var wire 5 +" reg1_raddr_i [4:0] $end
$var wire 5 ," reg2_raddr_i [4:0] $end
$var wire 5 -" reg_waddr_i [4:0] $end
$var wire 32 ." reg_wdata_i [31:0] $end
$var wire 1 F reg_wen $end
$var wire 1 ) rst_n $end
$var reg 32 /" reg1_rdata_o [31:0] $end
$var reg 32 0" reg2_rdata_o [31:0] $end
$var integer 32 1" i [31:0] $end
$upscope $end
$upscope $end
$upscope $end
$upscope $end
$enddefinitions $end
#0
$dumpvars
bx 1"
b0 0"
b0 /"
b0 ."
b0 -"
b0 ,"
b0 +"
bx *"
b0 )"
bx ("
bx '"
bx &"
bx %"
bx $"
bx #"
bx ""
bx !"
bx ~
bx }
bx |
bx {
bx z
bx y
b0 x
b0 w
b0 v
bx u
bx t
b0 s
b0 r
b0 q
b0 p
b0 o
bx n
bx m
bx l
bx k
bx j
bx i
bx h
b0 g
bx f
b0 e
bx d
bx c
b0 b
b0 a
b0 `
bx _
bx ^
bx ]
bx \
bx0 [
xZ
xY
xX
bx W
bx V
bx U
bx T
bx S
bx R
bx Q
b0 P
b0 O
0N
b0 M
0L
0K
b0 J
0I
b0 H
b0 G
0F
bx E
bx D
bx C
xB
bx A
bx @
bx ?
bx >
b0 =
b0 <
0;
b0 :
b0 9
b0 8
bx 7
bx 6
bx 5
bx 4
bx 3
bx 2
b0 1
b0 0
bx /
bx .
bx -
bx ,
bx +
bx *
0)
0(
bx '
bx &
bx %
bx $
bx #
bx "
bx !
$end
#10
1;
b0 [
b110100010011 5
b110100010011 ~
b110100010011 &"
b110100010011 ,
b110100010011 -
b110100010011 /
b110100010011 '"
b0 m
b0 f
b0 h
b0 n
b0 i
b10011 j
b0 ^
b0 R
b0 T
b0 _
b0 V
b10011 W
b0 4
b0 !"
b0 %"
b0 +
b0 .
b0 3
b0 $"
b0 2
b0 ("
b0 *"
b0 >
b0 c
b0 t
b0 6
b0 l
b0 ""
b10011 ?
b10011 d
b10011 u
b10011 7
b10011 k
b10011 #"
b0 '
b0 %
b0 $
b0 #
b0 &
b0 "
b0 !
0B
b0 C
b0 U
b0 {
0X
0Y
1Z
b0 @
b0 Q
b0 }
b0 A
b0 S
b0 |
b10011 E
b10011 \
b10011 z
b0 D
b0 ]
b0 y
b100000 1"
1(
#20
0(
#30
b11010 8
b11010 s
b11010 x
1F
b11010 i
b110110010011 5
b110110010011 ~
b110110010011 &"
b110110010011 ,
b110110010011 -
b110110010011 /
b110110010011 '"
1B
b110100010011 ?
b110100010011 d
b110100010011 u
b110100010011 7
b110100010011 k
b110100010011 #"
b100 4
b100 !"
b100 %"
b100 +
b100 .
b100 3
b100 $"
b100 2
b100 ("
b100 *"
1(
1)
#40
0(
#50
b11011 8
b11011 s
b11011 x
b11010 [
b10010011 5
b10010011 ~
b10010011 &"
b10010011 ,
b10010011 -
b10010011 /
b10010011 '"
b11011 i
b11010 H
b11010 a
b11010 -"
b11010 V
b1000 4
b1000 !"
b1000 %"
b1000 +
b1000 .
b1000 3
b1000 $"
b1000 2
b1000 ("
b1000 *"
b100 >
b100 c
b100 t
b100 6
b100 l
b100 ""
b110110010011 ?
b110110010011 d
b110110010011 u
b110110010011 7
b110110010011 k
b110110010011 #"
b11010 C
b11010 U
b11010 {
b110100010011 E
b110100010011 \
b110100010011 z
1(
#60
0(
#70
b100000011010 [
b1 8
b1 s
b1 x
b11011 V
b11011 H
b11011 a
b11011 -"
b1 i
b1000000000000001101111100010011 5
b1000000000000001101111100010011 ~
b1000000000000001101111100010011 &"
b1000000000000001101111100010011 ,
b1000000000000001101111100010011 -
b1000000000000001101111100010011 /
b1000000000000001101111100010011 '"
b11011 C
b11011 U
b11011 {
b110110010011 E
b110110010011 \
b110110010011 z
b100 D
b100 ]
b100 y
b1000 >
b1000 c
b1000 t
b1000 6
b1000 l
b1000 ""
b10010011 ?
b10010011 d
b10010011 u
b10010011 7
b10010011 k
b10010011 #"
b1100 4
b1100 !"
b1100 %"
b1100 +
b1100 .
b1100 3
b1100 $"
b1100 2
b1100 ("
b1100 *"
1(
#80
0(
#90
b11110 8
b11110 s
b11110 x
b1 :
b1 q
b1 +"
b100000000000 [
b111010010011 5
b111010010011 ~
b111010010011 &"
b111010010011 ,
b111010010011 -
b111010010011 /
b111010010011 '"
b100000 m
b1 h
b101 n
b11110 i
b1 V
b1 H
b1 a
b1 -"
b10000 4
b10000 !"
b10000 %"
b10000 +
b10000 .
b10000 3
b10000 $"
b10000 2
b10000 ("
b10000 *"
b1100 >
b1100 c
b1100 t
b1100 6
b1100 l
b1100 ""
b1000000000000001101111100010011 ?
b1000000000000001101111100010011 d
b1000000000000001101111100010011 u
b1000000000000001101111100010011 7
b1000000000000001101111100010011 k
b1000000000000001101111100010011 #"
b1 C
b1 U
b1 {
b10010011 E
b10010011 \
b10010011 z
b1000 D
b1000 ]
b1000 y
1(
#100
0(
#110
b10000011110 [
b11101 8
b11101 s
b11101 x
b0 :
b0 q
b0 +"
b100000 ^
b1 T
b101 _
b11110 V
b11110 H
b11110 a
b11110 -"
b0 m
b0 h
b0 n
b11101 i
b1000000000000110010011 5
b1000000000000110010011 ~
b1000000000000110010011 &"
b1000000000000110010011 ,
b1000000000000110010011 -
b1000000000000110010011 /
b1000000000000110010011 '"
b11110 C
b11110 U
b11110 {
b1000000000000001101111100010011 E
b1000000000000001101111100010011 \
b1000000000000001101111100010011 z
b1100 D
b1100 ]
b1100 y
b10000 >
b10000 c
b10000 t
b10000 6
b10000 l
b10000 ""
b111010010011 ?
b111010010011 d
b111010010011 u
b111010010011 7
b111010010011 k
b111010010011 #"
b10100 4
b10100 !"
b10100 %"
b10100 +
b10100 .
b10100 3
b10100 $"
b10100 2
b10100 ("
b10100 *"
1(
#120
0(
#130
b11 8
b11 s
b11 x
b10 <
b10 p
b10 w
b100000011100 [
b101011110111110001010001100011 5
b101011110111110001010001100011 ~
b101011110111110001010001100011 &"
b101011110111110001010001100011 ,
b101011110111110001010001100011 -
b101011110111110001010001100011 /
b101011110111110001010001100011 '"
b10 f
b11 i
b0 ^
b0 T
b0 _
b11101 V
b11101 H
b11101 a
b11101 -"
b11000 4
b11000 !"
b11000 %"
b11000 +
b11000 .
b11000 3
b11000 $"
b11000 2
b11000 ("
b11000 *"
b10100 >
b10100 c
b10100 t
b10100 6
b10100 l
b10100 ""
b1000000000000110010011 ?
b1000000000000110010011 d
b1000000000000110010011 u
b1000000000000110010011 7
b1000000000000110010011 k
b1000000000000110010011 #"
b11101 C
b11101 U
b11101 {
b111010010011 E
b111010010011 \
b111010010011 z
b10000 D
b10000 ]
b10000 y
1(
#140
0(
#150
b100000000010 [
0;
b0 8
b0 s
b0 x
b0 <
b0 p
b0 w
b11101 9
b11101 r
b11101 ,"
b11110 :
b11110 q
b11110 +"
b10 R
b11 V
b10 G
b10 b
b10 ."
b11 H
b11 a
b11 -"
b10101 m
b11101 f
b11110 h
b1 n
b1000 i
b1100011 j
b10000000000000000000000010110111 5
b10000000000000000000000010110111 ~
b10000000000000000000000010110111 &"
b10000000000000000000000010110111 ,
b10000000000000000000000010110111 -
b10000000000000000000000010110111 /
b10000000000000000000000010110111 '"
b11 C
b11 U
b11 {
1X
1Y
0Z
b10 @
b10 Q
b10 }
b1000000000000110010011 E
b1000000000000110010011 \
b1000000000000110010011 z
b10100 D
b10100 ]
b10100 y
b11000 >
b11000 c
b11000 t
b11000 6
b11000 l
b11000 ""
b101011110111110001010001100011 ?
b101011110111110001010001100011 d
b101011110111110001010001100011 u
b101011110111110001010001100011 7
b101011110111110001010001100011 k
b101011110111110001010001100011 #"
b11100 4
b11100 !"
b11100 %"
b11100 +
b11100 .
b11100 3
b11100 $"
b11100 2
b11100 ("
b11100 *"
1(
#160
0(
#170
1;
b1 8
b1 s
b1 x
b10000000000000000000000000000000 =
b10000000000000000000000000000000 o
b10000000000000000000000000000000 v
b0 9
b0 r
b0 ,"
b0 :
b0 q
b0 +"
b1010101000 [
b1000000000100001101111100010011 5
b1000000000100001101111100010011 ~
b1000000000100001101111100010011 &"
b1000000000100001101111100010011 ,
b1000000000100001101111100010011 -
b1000000000100001101111100010011 /
b1000000000100001101111100010011 '"
b1000000 m
b0 f
b0 h
b0 n
b1 i
b110111 j
b10101 ^
b11101 R
b11110 T
b1 _
b1000 V
b1100011 W
0F
b0 G
b0 b
b0 ."
b0 H
b0 a
b0 -"
b100000 4
b100000 !"
b100000 %"
b100000 +
b100000 .
b100000 3
b100000 $"
b100000 2
b100000 ("
b100000 *"
b11100 >
b11100 c
b11100 t
b11100 6
b11100 l
b11100 ""
b10000000000000000000000010110111 ?
b10000000000000000000000010110111 d
b10000000000000000000000010110111 u
b10000000000000000000000010110111 7
b10000000000000000000000010110111 k
b10000000000000000000000010110111 #"
b10 &
0B
b0 C
b0 U
b0 {
0X
0Y
1Z
b0 @
b0 Q
b0 }
b101011110111110001010001100011 E
b101011110111110001010001100011 \
b101011110111110001010001100011 z
b11000 D
b11000 ]
b11000 y
1(
#180
0(
#190
b10000000000000000000000000000000 1
b10000000000000000000000000000000 g
b10000000000000000000000000000000 /"
b11111111111111111111100000000000 [
1F
b10000000000000000000000000000000 G
b10000000000000000000000000000000 b
b10000000000000000000000000000000 ."
b1 H
b1 a
b1 -"
0N
b11110 8
b11110 s
b11110 x
b1 <
b1 p
b1 w
b1 :
b1 q
b1 +"
b1000000 ^
b0 R
b0 T
b0 _
b1 V
b110111 W
0L
0I
b0 M
b0 O
b0 )"
b0 J
b0 P
b0 `
b100000 m
b1 f
b1 h
b101 n
b11110 i
b10011 j
b10000000000000000000000000000000 =
b10000000000000000000000000000000 o
b10000000000000000000000000000000 v
b11000000000000000000111010110111 5
b11000000000000000000111010110111 ~
b11000000000000000000111010110111 &"
b11000000000000000000111010110111 ,
b11000000000000000000111010110111 -
b11000000000000000000111010110111 /
b11000000000000000000111010110111 '"
1B
b1 C
b1 U
b1 {
1Y
0Z
b10000000000000000000000000000000 A
b10000000000000000000000000000000 S
b10000000000000000000000000000000 |
b10000000000000000000000010110111 E
b10000000000000000000000010110111 \
b10000000000000000000000010110111 z
b11100 D
b11100 ]
b11100 y
b100000 >
b100000 c
b100000 t
b100000 6
b100000 l
b100000 ""
b1000000000100001101111100010011 ?
b1000000000100001101111100010011 d
b1000000000100001101111100010011 u
b1000000000100001101111100010011 7
b1000000000100001101111100010011 k
b1000000000100001101111100010011 #"
b100100 4
b100100 !"
b100100 %"
b100100 +
b100100 .
b100100 3
b100100 $"
b100100 2
b100100 ("
b100100 *"
1(
#200
0(
#210
b0 1
b0 g
b0 /"
b11101 8
b11101 s
b11101 x
b0 <
b0 p
b0 w
b11000000000000000000000000000000 =
b11000000000000000000000000000000 o
b11000000000000000000000000000000 v
b0 :
b0 q
b0 +"
b10000011110 [
b11000000000000000000000000000000 G
b11000000000000000000000000000000 b
b11000000000000000000000000000000 ."
b1100000000000110010011 5
b1100000000000110010011 ~
b1100000000000110010011 &"
b1100000000000110010011 ,
b1100000000000110010011 -
b1100000000000110010011 /
b1100000000000110010011 '"
b1100000 m
b0 f
b0 h
b0 n
b11101 i
b110111 j
b100000 ^
b1 R
b1 T
b101 _
b11110 V
b10011 W
b11110 H
b11110 a
b11110 -"
b101000 4
b101000 !"
b101000 %"
b101000 +
b101000 .
b101000 3
b101000 $"
b101000 2
b101000 ("
b101000 *"
b100100 >
b100100 c
b100100 t
b100100 6
b100100 l
b100100 ""
b11000000000000000000111010110111 ?
b11000000000000000000111010110111 d
b11000000000000000000111010110111 u
b11000000000000000000111010110111 7
b11000000000000000000111010110111 k
b11000000000000000000111010110111 #"
b10000000000000000000000000000000 !
b11110 C
b11110 U
b11110 {
b1 @
b1 Q
b1 }
b1000000000100001101111100010011 E
b1000000000100001101111100010011 \
b1000000000100001101111100010011 z
b100000 D
b100000 ]
b100000 y
1(
#220
0(
#230
b11111111111111111111110000011100 [
b11 8
b11 s
b11 x
b11 <
b11 p
b11 w
b1100000 ^
b0 R
b0 T
b0 _
b11101 V
b110111 W
b11101 H
b11101 a
b11101 -"
b0 m
b11 f
b11 i
b10011 j
b0 =
b0 o
b0 v
b101001110111110001101001100011 5
b101001110111110001101001100011 ~
b101001110111110001101001100011 &"
b101001110111110001101001100011 ,
b101001110111110001101001100011 -
b101001110111110001101001100011 /
b101001110111110001101001100011 '"
b11101 C
b11101 U
b11101 {
b0 @
b0 Q
b0 }
b11000000000000000000000000000000 A
b11000000000000000000000000000000 S
b11000000000000000000000000000000 |
b11000000000000000000111010110111 E
b11000000000000000000111010110111 \
b11000000000000000000111010110111 z
b100100 D
b100100 ]
b100100 y
b11000000000000000000000000000000 '
b101000 >
b101000 c
b101000 t
b101000 6
b101000 l
b101000 ""
b1100000000000110010011 ?
b1100000000000110010011 d
b1100000000000110010011 u
b1100000000000110010011 7
b1100000000000110010011 k
b1100000000000110010011 #"
b101100 4
b101100 !"
b101100 %"
b101100 +
b101100 .
b101100 3
b101100 $"
b101100 2
b101100 ("
b101100 *"
1(
#240
0(
#250
b11000000000000000000000000000000 =
b11000000000000000000000000000000 o
b11000000000000000000000000000000 v
b11000000000000000000000000000000 0
b11000000000000000000000000000000 e
b11000000000000000000000000000000 0"
b11000000000000000000000000000000 1
b11000000000000000000000000000000 g
b11000000000000000000000000000000 /"
0;
b0 8
b0 s
b0 x
b11000000000000000000000000000000 <
b11000000000000000000000000000000 p
b11000000000000000000000000000000 w
b11101 9
b11101 r
b11101 ,"
b11110 :
b11110 q
b11110 +"
b100000000010 [
b10000000000000000000000010110111 5
b10000000000000000000000010110111 ~
b10000000000000000000000010110111 &"
b10000000000000000000000010110111 ,
b10000000000000000000000010110111 -
b10000000000000000000000010110111 /
b10000000000000000000000010110111 '"
b10100 m
b11101 f
b11110 h
b1 n
b10100 i
b1100011 j
b0 ^
b11 R
b11 V
b10011 W
b11 G
b11 b
b11 ."
b11 H
b11 a
b11 -"
b110000 4
b110000 !"
b110000 %"
b110000 +
b110000 .
b110000 3
b110000 $"
b110000 2
b110000 ("
b110000 *"
b101100 >
b101100 c
b101100 t
b101100 6
b101100 l
b101100 ""
b101001110111110001101001100011 ?
b101001110111110001101001100011 d
b101001110111110001101001100011 u
b101001110111110001101001100011 7
b101001110111110001101001100011 k
b101001110111110001101001100011 #"
b11000000000000000000000000000000 %
b11 C
b11 U
b11 {
1X
b11 @
b11 Q
b11 }
1Y
0Z
b0 A
b0 S
b0 |
b1100000000000110010011 E
b1100000000000110010011 \
b1100000000000110010011 z
b101000 D
b101000 ]
b101000 y
1(
#260
0(
#270
b1010010100 [
b0 0
b0 e
b0 0"
b0 1
b0 g
b0 /"
1;
b1 8
b1 s
b1 x
b0 <
b0 p
b0 w
b10000000000000000000000000000000 =
b10000000000000000000000000000000 o
b10000000000000000000000000000000 v
b0 9
b0 r
b0 ,"
b0 :
b0 q
b0 +"
b10100 ^
b11101 R
b11110 T
b1 _
b10100 V
b1100011 W
0F
b0 G
b0 b
b0 ."
b0 H
b0 a
b0 -"
b1000000 m
b0 f
b0 h
b0 n
b1 i
b110111 j
b1000000011100001101111100010011 5
b1000000011100001101111100010011 ~
b1000000011100001101111100010011 &"
b1000000011100001101111100010011 ,
b1000000011100001101111100010011 -
b1000000011100001101111100010011 /
b1000000011100001101111100010011 '"
0B
b0 C
b0 U
b0 {
0Y
1Z
b11000000000000000000000000000000 @
b11000000000000000000000000000000 Q
b11000000000000000000000000000000 }
0X
b11000000000000000000000000000000 A
b11000000000000000000000000000000 S
b11000000000000000000000000000000 |
b101001110111110001101001100011 E
b101001110111110001101001100011 \
b101001110111110001101001100011 z
b101100 D
b101100 ]
b101100 y
b11 &
b110000 >
b110000 c
b110000 t
b110000 6
b110000 l
b110000 ""
b10000000000000000000000010110111 ?
b10000000000000000000000010110111 d
b10000000000000000000000010110111 u
b10000000000000000000000010110111 7
b10000000000000000000000010110111 k
b10000000000000000000000010110111 #"
b110100 4
b110100 !"
b110100 %"
b110100 +
b110100 .
b110100 3
b110100 $"
b110100 2
b110100 ("
b110100 *"
1(
#280
0(
#290
b10000000000000000000000000000000 1
b10000000000000000000000000000000 g
b10000000000000000000000000000000 /"
b11110 8
b11110 s
b11110 x
b111 <
b111 p
b111 w
b1 :
b1 q
b1 +"
b11111111111111111111100000000000 [
1F
b10000000000000000000000000000000 G
b10000000000000000000000000000000 b
b10000000000000000000000000000000 ."
b1 H
b1 a
b1 -"
0N
b11111111000000000000111010110111 5
b11111111000000000000111010110111 ~
b11111111000000000000111010110111 &"
b11111111000000000000111010110111 ,
b11111111000000000000111010110111 -
b11111111000000000000111010110111 /
b11111111000000000000111010110111 '"
b100000 m
b111 f
b1 h
b101 n
b11110 i
b10011 j
b10000000000000000000000000000000 =
b10000000000000000000000000000000 o
b10000000000000000000000000000000 v
b1000000 ^
b0 R
b0 T
b0 _
b1 V
b110111 W
0L
0I
b0 M
b0 O
b0 )"
b0 J
b0 P
b0 `
b111000 4
b111000 !"
b111000 %"
b111000 +
b111000 .
b111000 3
b111000 $"
b111000 2
b111000 ("
b111000 *"
b110100 >
b110100 c
b110100 t
b110100 6
b110100 l
b110100 ""
b1000000011100001101111100010011 ?
b1000000011100001101111100010011 d
b1000000011100001101111100010011 u
b1000000011100001101111100010011 7
b1000000011100001101111100010011 k
b1000000011100001101111100010011 #"
1B
b1 C
b1 U
b1 {
b0 @
b0 Q
b0 }
0X
1Y
0Z
b10000000000000000000000000000000 A
b10000000000000000000000000000000 S
b10000000000000000000000000000000 |
b10000000000000000000000010110111 E
b10000000000000000000000010110111 \
b10000000000000000000000010110111 z
b110000 D
b110000 ]
b110000 y
1(
#300
0(
#310
b10000011110 [
b11111111000000000000000000000000 G
b11111111000000000000000000000000 b
b11111111000000000000000000000000 ."
b0 1
b0 g
b0 /"
b11101 8
b11101 s
b11101 x
b0 <
b0 p
b0 w
b11111111000000000000000000000000 =
b11111111000000000000000000000000 o
b11111111000000000000000000000000 v
b0 :
b0 q
b0 +"
b100000 ^
b111 R
b1 T
b101 _
b11110 V
b10011 W
b11110 H
b11110 a
b11110 -"
b1111111 m
b10000 f
b0 h
b0 n
b11101 i
b110111 j
b10000000000000110010011 5
b10000000000000110010011 ~
b10000000000000110010011 &"
b10000000000000110010011 ,
b10000000000000110010011 -
b10000000000000110010011 /
b10000000000000110010011 '"
b11110 C
b11110 U
b11110 {
b111 @
b111 Q
b111 }
b1000000011100001101111100010011 E
b1000000011100001101111100010011 \
b1000000011100001101111100010011 z
b110100 D
b110100 ]
b110100 y
b111000 >
b111000 c
b111000 t
b111000 6
b111000 l
b111000 ""
b11111111000000000000111010110111 ?
b11111111000000000000111010110111 d
b11111111000000000000111010110111 u
b11111111000000000000111010110111 7
b11111111000000000000111010110111 k
b11111111000000000000111010110111 #"
b111100 4
b111100 !"
b111100 %"
b111100 +
b111100 .
b111100 3
b111100 $"
b111100 2
b111100 ("
b111100 *"
1(
#320
0(
#330
b11 8
b11 s
b11 x
b100 <
b100 p
b100 w
b11111111111111111111111111111100 [
b101001110111110001000001100011 5
b101001110111110001000001100011 ~
b101001110111110001000001100011 &"
b101001110111110001000001100011 ,
b101001110111110001000001100011 -
b101001110111110001000001100011 /
b101001110111110001000001100011 '"
b0 m
b100 f
b11 i
b10011 j
b0 =
b0 o
b0 v
b1111111 ^
b10000 R
b0 T
b0 _
b11101 V
b110111 W
b11101 H
b11101 a
b11101 -"
b1000000 4
b1000000 !"
b1000000 %"
b1000000 +
b1000000 .
b1000000 3
b1000000 $"
b1000000 2
b1000000 ("
b1000000 *"
b111100 >
b111100 c
b111100 t
b111100 6
b111100 l
b111100 ""
b10000000000000110010011 ?
b10000000000000110010011 d
b10000000000000110010011 u
b10000000000000110010011 7
b10000000000000110010011 k
b10000000000000110010011 #"
b11111111000000000000000000000000 '
b11101 C
b11101 U
b11101 {
b0 @
b0 Q
b0 }
b11111111000000000000000000000000 A
b11111111000000000000000000000000 S
b11111111000000000000000000000000 |
b11111111000000000000111010110111 E
b11111111000000000000111010110111 \
b11111111000000000000111010110111 z
b111000 D
b111000 ]
b111000 y
1(
#340
0(
#350
b11111111000000000000000000000000 =
b11111111000000000000000000000000 o
b11111111000000000000000000000000 v
b100000000010 [
b11111111000000000000000000000000 0
b11111111000000000000000000000000 e
b11111111000000000000000000000000 0"
b11111111000000000000000000000000 1
b11111111000000000000000000000000 g
b11111111000000000000000000000000 /"
0;
b0 8
b0 s
b0 x
b11111111000000000000000000000000 <
b11111111000000000000000000000000 p
b11111111000000000000000000000000 w
b11101 9
b11101 r
b11101 ,"
b11110 :
b11110 q
b11110 +"
b0 ^
b100 R
b11 V
b10011 W
b100 G
b100 b
b100 ."
b11 H
b11 a
b11 -"
b10100 m
b11101 f
b11110 h
b1 n
b0 i
b1100011 j
b10000000000000000000000010110111 5
b10000000000000000000000010110111 ~
b10000000000000000000000010110111 &"
b10000000000000000000000010110111 ,
b10000000000000000000000010110111 -
b10000000000000000000000010110111 /
b10000000000000000000000010110111 '"
b11 C
b11 U
b11 {
1X
b100 @
b100 Q
b100 }
1Y
0Z
b0 A
b0 S
b0 |
b10000000000000110010011 E
b10000000000000110010011 \
b10000000000000110010011 z
b111100 D
b111100 ]
b111100 y
b11111111000000000000000000000000 %
b1000000 >
b1000000 c
b1000000 t
b1000000 6
b1000000 l
b1000000 ""
b101001110111110001000001100011 ?
b101001110111110001000001100011 d
b101001110111110001000001100011 u
b101001110111110001000001100011 7
b101001110111110001000001100011 k
b101001110111110001000001100011 #"
b1000100 4
b1000100 !"
b1000100 %"
b1000100 +
b1000100 .
b1000100 3
b1000100 $"
b1000100 2
b1000100 ("
b1000100 *"
1(
#360
0(
#370
b0 0
b0 e
b0 0"
b0 1
b0 g
b0 /"
1;
b1 8
b1 s
b1 x
b0 <
b0 p
b0 w
b10000000000000000000000000000000 =
b10000000000000000000000000000000 o
b10000000000000000000000000000000 v
b0 9
b0 r
b0 ,"
b0 :
b0 q
b0 +"
b1010000000 [
b1000000111000001101111100010011 5
b1000000111000001101111100010011 ~
b1000000111000001101111100010011 &"
b1000000111000001101111100010011 ,
b1000000111000001101111100010011 -
b1000000111000001101111100010011 /
b1000000111000001101111100010011 '"
b1000000 m
b0 f
b0 h
b0 n
b1 i
b110111 j
b10100 ^
b11101 R
b11110 T
b1 _
b0 V
b1100011 W
0F
b0 G
b0 b
b0 ."
b0 H
b0 a
b0 -"
b1001000 4
b1001000 !"
b1001000 %"
b1001000 +
b1001000 .
b1001000 3
b1001000 $"
b1001000 2
b1001000 ("
b1001000 *"
b1000100 >
b1000100 c
b1000100 t
b1000100 6
b1000100 l
b1000100 ""
b10000000000000000000000010110111 ?
b10000000000000000000000010110111 d
b10000000000000000000000010110111 u
b10000000000000000000000010110111 7
b10000000000000000000000010110111 k
b10000000000000000000000010110111 #"
b100 &
0B
b0 C
b0 U
b0 {
0Y
1Z
b11111111000000000000000000000000 @
b11111111000000000000000000000000 Q
b11111111000000000000000000000000 }
0X
b11111111000000000000000000000000 A
b11111111000000000000000000000000 S
b11111111000000000000000000000000 |
b101001110111110001000001100011 E
b101001110111110001000001100011 \
b101001110111110001000001100011 z
b1000000 D
b1000000 ]
b1000000 y
1(
#380
0(
