sim/rsicv.vcd
$date
	Mon Jul 18 17:35:17 2022
$end
$version
	Icarus Verilog
$end
$timescale
	1s
$end
$scope module tb_riscv $end
$var wire 32 ! x1 [31:0] $end
$var wire 32 " x2 [31:0] $end
$var wire 32 # x26 [31:0] $end
$var wire 32 $ x27 [31:0] $end
$var wire 32 % x29 [31:0] $end
$var wire 32 & x3 [31:0] $end
$var wire 32 ' x30 [31:0] $end
$var reg 1 ( clk $end
$var reg 1 ) rst_n $end
$var integer 32 * r [31:0] $end
$scope module m_riscv_soc $end
$var wire 1 ( clk $end
$var wire 1 ) rst_n $end
$var wire 32 + inst_addr [31:0] $end
$var wire 32 , inst [31:0] $end
$scope module m_rom $end
$var wire 32 - inst_o [31:0] $end
$var wire 32 . inst_addr_i [31:0] $end
$upscope $end
$scope module top $end
$var wire 1 ( clk $end
$var wire 32 / inst_i [31:0] $end
$var wire 1 ) rst_n $end
$var wire 32 0 regs_rs2_data [31:0] $end
$var wire 32 1 regs_rs1_data [31:0] $end
$var wire 32 2 pc_io [31:0] $end
$var wire 32 3 inst_addr_o [31:0] $end
$var wire 32 4 if_inst_addr [31:0] $end
$var wire 32 5 if_inst [31:0] $end
$var wire 32 6 if_id_inst_addr [31:0] $end
$var wire 32 7 if_id_inst [31:0] $end
$var wire 5 8 id_wd_addr [4:0] $end
$var wire 5 9 id_rs2_addr [4:0] $end
$var wire 5 : id_rs1_addr [4:0] $end
$var wire 1 ; id_reg_wen $end
$var wire 32 < id_op_2 [31:0] $end
$var wire 32 = id_op_1 [31:0] $end
$var wire 32 > id_inst_addr [31:0] $end
$var wire 32 ? id_inst [31:0] $end
$var wire 32 @ id_ex_rs2_data [31:0] $end
$var wire 32 A id_ex_rs1_data [31:0] $end
$var wire 1 B id_ex_rd_wen $end
$var wire 5 C id_ex_rd_addr [4:0] $end
$var wire 32 D id_ex_inst_addr [31:0] $end
$var wire 32 E id_ex_inst [31:0] $end
$var wire 1 F ex_rd_wen $end
$var wire 32 G ex_rd_data [31:0] $end
$var wire 5 H ex_rd_addr [4:0] $end
$var wire 1 I ex_jump_ena $end
$var wire 32 J ex_jump_addr [31:0] $end
$var wire 1 K ex_hold_flag $end
$var wire 1 L ctrl_jump_ena $end
$var wire 32 M ctrl_jump_addr [31:0] $end
$var wire 1 N ctrl_hold_flag $end
$scope module m_ctrl $end
$var wire 1 N hold_flag_o $end
$var wire 32 O jump_addr_o [31:0] $end
$var wire 1 L jump_ena_o $end
$var wire 1 I jump_ena_i $end
$var wire 32 P jump_addr_i [31:0] $end
$var wire 1 K hold_flag_i $end
$upscope $end
$scope module m_ex $end
$var wire 32 Q rs2_data_i [31:0] $end
$var wire 5 R rs2 [4:0] $end
$var wire 32 S rs1_data_i [31:0] $end
$var wire 5 T rs1 [4:0] $end
$var wire 1 B rd_wen_i $end
$var wire 5 U rd_addr_i [4:0] $end
$var wire 5 V rd [4:0] $end
$var wire 7 W opcode [6:0] $end
$var wire 1 X op1_i_less_than_op2_i_unsigned $end
$var wire 1 Y op1_i_less_than_op2_i_signed $end
$var wire 1 Z op1_i_equal_op2_i $end
$var wire 32 [ jump_imm [31:0] $end
$var wire 32 \ inst_i [31:0] $end
$var wire 32 ] inst_addr_i [31:0] $end
$var wire 7 ^ func7 [6:0] $end
$var wire 3 _ func3 [2:0] $end
$var reg 1 K hold_flag_o $end
$var reg 32 ` jump_addr_o [31:0] $end
$var reg 1 I jump_ena_o $end
$var reg 5 a rd_addr_o [4:0] $end
$var reg 32 b rd_data_o [31:0] $end
$var reg 1 F rd_wen_o $end
$upscope $end
$scope module m_id $end
$var wire 32 c inst_addr_o [31:0] $end
$var wire 32 d inst_o [31:0] $end
$var wire 32 e rs2_data_i [31:0] $end
$var wire 5 f rs2 [4:0] $end
$var wire 32 g rs1_data_i [31:0] $end
$var wire 5 h rs1 [4:0] $end
$var wire 5 i rd [4:0] $end
$var wire 7 j opcode [6:0] $end
$var wire 32 k inst_i [31:0] $end
$var wire 32 l inst_addr_i [31:0] $end
$var wire 7 m func7 [6:0] $end
$var wire 3 n func3 [2:0] $end
$var reg 32 o op_1_o [31:0] $end
$var reg 32 p op_2_o [31:0] $end
$var reg 1 ; reg_wen $end
$var reg 5 q rs1_addr_o [4:0] $end
$var reg 5 r rs2_addr_o [4:0] $end
$var reg 5 s wd_addr_o [4:0] $end
$upscope $end
$scope module m_id_ex $end
$var wire 1 ( clk $end
$var wire 1 N hold_flag_i $end
$var wire 32 t inst_addr_i [31:0] $end
$var wire 32 u inst_i [31:0] $end
$var wire 1 ; rd_wen_i $end
$var wire 32 v rs1_data_i [31:0] $end
$var wire 32 w rs2_data_i [31:0] $end
$var wire 1 ) rst_n $end
$var wire 5 x wd_addr_i [4:0] $end
$var reg 32 y inst_addr_o [31:0] $end
$var reg 32 z inst_o [31:0] $end
$var reg 5 { rd_addr_o [4:0] $end
$var reg 1 B rd_wen_o $end
$var reg 32 | rs1_data_o [31:0] $end
$var reg 32 } rs2_data_o [31:0] $end
$upscope $end
$scope module m_if_id $end
$var wire 1 ( clk $end
$var wire 1 N hold_flag_i $end
$var wire 1 ) rst_n $end
$var wire 32 ~ inst_i [31:0] $end
$var wire 32 !" inst_addr_i [31:0] $end
$var reg 32 "" inst_addr_o [31:0] $end
$var reg 32 #" inst_o [31:0] $end
$upscope $end
$scope module m_ifeach $end
$var wire 32 $" if_rom_addr_o [31:0] $end
$var wire 32 %" inst_addr_o [31:0] $end
$var wire 32 &" inst_o [31:0] $end
$var wire 32 '" rom_inst_i [31:0] $end
$var wire 32 (" pc_addr_i [31:0] $end
$upscope $end
$scope module m_pc_reg $end
$var wire 1 ( clk $end
$var wire 32 )" jump_addr_i [31:0] $end
$var wire 1 L jump_ena_i $end
$var wire 1 ) rst_n $end
$var reg 32 *" pc_o [31:0] $end
$upscope $end
$scope module m_regs $end
$var wire 1 ( clk $end
$var wire 5 +" reg1_raddr_i [4:0] $end
$var wire 5 ," reg2_raddr_i [4:0] $end
$var wire 5 -" reg_waddr_i [4:0] $end
$var wire 32 ." reg_wdata_i [31:0] $end
$var wire 1 F reg_wen $end
$var wire 1 ) rst_n $end
$var reg 32 /" reg1_rdata_o [31:0] $end
$var reg 32 0" reg2_rdata_o [31:0] $end
$var integer 32 1" i [31:0] $end
$upscope $end
$upscope $end
$upscope $end
$upscope $end
$enddefinitions $end
#0
$dumpvars
bx 1"
b0 0"
b0 /"
b0 ."
b0 -"
b0 ,"
b0 +"
bx *"
b0 )"
bx ("
bx '"
bx &"
bx %"
bx $"
bx #"
bx ""
bx !"
bx ~
bx }
bx |
bx {
bx z
bx y
b0 x
b0 w
b0 v
bx u
bx t
b0 s
b0 r
b0 q
b0 p
b0 o
bx n
bx m
bx l
bx k
bx j
bx i
bx h
b0 g
bx f
b0 e
bx d
bx c
b0 b
b0 a
b0 `
bx _
bx ^
bx ]
bx \
bx0 [
xZ
xY
xX
bx W
bx V
bx U
bx T
bx S
bx R
bx Q
b0 P
b0 O
0N
b0 M
0L
0K
b0 J
0I
b0 H
b0 G
0F
bx E
bx D
bx C
xB
bx A
bx @
bx ?
bx >
b0 =
b0 <
0;
b0 :
b0 9
b0 8
bx 7
bx 6
bx 5
bx 4
bx 3
bx 2
b0 1
b0 0
bx /
bx .
bx -
bx ,
bx +
bx *
0)
0(
bx '
bx &
bx %
bx $
bx #
bx "
bx !
$end
#10
1;
b0 [
b110100010011 5
b110100010011 ~
b110100010011 &"
b110100010011 ,
b110100010011 -
b110100010011 /
b110100010011 '"
b0 m
b0 f
b0 h
b0 n
b0 i
b10011 j
b0 ^
b0 R
b0 T
b0 _
b0 V
b10011 W
b0 4
b0 !"
b0 %"
b0 +
b0 .
b0 3
b0 $"
b0 2
b0 ("
b0 *"
b0 >
b0 c
b0 t
b0 6
b0 l
b0 ""
b10011 ?
b10011 d
b10011 u
b10011 7
b10011 k
b10011 #"
b0 '
b0 %
b0 $
b0 #
b0 &
b0 "
b0 !
0B
b0 C
b0 U
b0 {
0X
0Y
1Z
b0 @
b0 Q
b0 }
b0 A
b0 S
b0 |
b10011 E
b10011 \
b10011 z
b0 D
b0 ]
b0 y
b100000 1"
1(
#20
0(
#30
b11010 8
b11010 s
b11010 x
1F
b11010 i
b110110010011 5
b110110010011 ~
b110110010011 &"
b110110010011 ,
b110110010011 -
b110110010011 /
b110110010011 '"
1B
b110100010011 ?
b110100010011 d
b110100010011 u
b110100010011 7
b110100010011 k
b110100010011 #"
b100 4
b100 !"
b100 %"
b100 +
b100 .
b100 3
b100 $"
b100 2
b100 ("
b100 *"
1(
1)
#40
0(
#50
b11011 8
b11011 s
b11011 x
b11010 [
b1000000000000110010011 5
b1000000000000110010011 ~
b1000000000000110010011 &"
b1000000000000110010011 ,
b1000000000000110010011 -
b1000000000000110010011 /
b1000000000000110010011 '"
b11011 i
b11010 H
b11010 a
b11010 -"
b11010 V
b1000 4
b1000 !"
b1000 %"
b1000 +
b1000 .
b1000 3
b1000 $"
b1000 2
b1000 ("
b1000 *"
b100 >
b100 c
b100 t
b100 6
b100 l
b100 ""
b110110010011 ?
b110110010011 d
b110110010011 u
b110110010011 7
b110110010011 k
b110110010011 #"
b11010 C
b11010 U
b11010 {
b110100010011 E
b110100010011 \
b110100010011 z
1(
#60
0(
#70
b100000011010 [
b11 8
b11 s
b11 x
b10 <
b10 p
b10 w
b11011 V
b11011 H
b11011 a
b11011 -"
b10 f
b11 i
b1010010011 5
b1010010011 ~
b1010010011 &"
b1010010011 ,
b1010010011 -
b1010010011 /
b1010010011 '"
b11011 C
b11011 U
b11011 {
b110110010011 E
b110110010011 \
b110110010011 z
b100 D
b100 ]
b100 y
b1000 >
b1000 c
b1000 t
b1000 6
b1000 l
b1000 ""
b1000000000000110010011 ?
b1000000000000110010011 d
b1000000000000110010011 u
b1000000000000110010011 7
b1000000000000110010011 k
b1000000000000110010011 #"
b1100 4
b1100 !"
b1100 %"
b1100 +
b1100 .
b1100 3
b1100 $"
b1100 2
b1100 ("
b1100 *"
1(
#80
0(
#90
b101 8
b101 s
b101 x
b0 <
b0 p
b0 w
b100000000010 [
b1100010111 5
b1100010111 ~
b1100010111 &"
b1100010111 ,
b1100010111 -
b1100010111 /
b1100010111 '"
b0 f
b101 i
b10 R
b11 V
b10 G
b10 b
b10 ."
b11 H
b11 a
b11 -"
b10000 4
b10000 !"
b10000 %"
b10000 +
b10000 .
b10000 3
b10000 $"
b10000 2
b10000 ("
b10000 *"
b1100 >
b1100 c
b1100 t
b1100 6
b1100 l
b1100 ""
b1010010011 ?
b1010010011 d
b1010010011 u
b1010010011 7
b1010010011 k
b1010010011 #"
b11 C
b11 U
b11 {
1X
1Y
0Z
b10 @
b10 Q
b10 }
b1000000000000110010011 E
b1000000000000110010011 \
b1000000000000110010011 z
b1000 D
b1000 ]
b1000 y
1(
#100
0(
#110
b100000000100 [
b110 8
b110 s
b110 x
b0 R
b101 V
b0 G
b0 b
b0 ."
b101 H
b101 a
b101 -"
b110 i
b10111 j
b1000000110000001100010011 5
b1000000110000001100010011 ~
b1000000110000001100010011 &"
b1000000110000001100010011 ,
b1000000110000001100010011 -
b1000000110000001100010011 /
b1000000110000001100010011 '"
b101 C
b101 U
b101 {
0X
0Y
1Z
b0 @
b0 Q
b0 }
b1010010011 E
b1010010011 \
b1010010011 z
b1100 D
b1100 ]
b1100 y
b10 &
b10000 >
b10000 c
b10000 t
b10000 6
b10000 l
b10000 ""
b1100010111 ?
b1100010111 d
b1100010111 u
b1100010111 7
b1100010111 k
b1100010111 #"
b10100 4
b10100 !"
b10100 %"
b10100 +
b10100 .
b10100 3
b10100 $"
b10100 2
b10100 ("
b10100 *"
1(
#120
0(
#130
b10000 1
b10000 g
b10000 /"
b10000 <
b10000 p
b10000 w
b110 :
b110 q
b110 +"
b110 [
b10000 G
b10000 b
b10000 ."
b110000001011100111 5
b110000001011100111 ~
b110000001011100111 &"
b110000001011100111 ,
b110000001011100111 -
b110000001011100111 /
b110000001011100111 '"
b10000 f
b110 h
b10011 j
b10000 =
b10000 o
b10000 v
b110 V
b10111 W
b110 H
b110 a
b110 -"
b11000 4
b11000 !"
b11000 %"
b11000 +
b11000 .
b11000 3
b11000 $"
b11000 2
b11000 ("
b11000 *"
b10100 >
b10100 c
b10100 t
b10100 6
b10100 l
b10100 ""
b1000000110000001100010011 ?
b1000000110000001100010011 d
b1000000110000001100010011 u
b1000000110000001100010011 7
b1000000110000001100010011 k
b1000000110000001100010011 #"
b110 C
b110 U
b110 {
b1100010111 E
b1100010111 \
b1100010111 z
b10000 D
b10000 ]
b10000 y
1(
#140
0(
#150
b100000 =
b100000 o
b100000 v
b100000 1
b100000 g
b100000 /"
b101 8
b101 s
b101 x
b0 <
b0 p
b0 w
b10000 R
b110 T
b10011 W
b100000 G
b100000 b
b100000 ."
b0 f
b101 i
b1100111 j
b1100000000000000000001101111 5
b1100000000000000000001101111 ~
b1100000000000000000001101111 &"
b1100000000000000000001101111 ,
b1100000000000000000001101111 -
b1100000000000000000001101111 /
b1100000000000000000001101111 '"
b10000 @
b10000 Q
b10000 }
1Z
b10000 A
b10000 S
b10000 |
b1000000110000001100010011 E
b1000000110000001100010011 \
b1000000110000001100010011 z
b10100 D
b10100 ]
b10100 y
b11000 >
b11000 c
b11000 t
b11000 6
b11000 l
b11000 ""
b110000001011100111 ?
b110000001011100111 d
b110000001011100111 u
b110000001011100111 7
b110000001011100111 k
b110000001011100111 #"
b11100 4
b11100 !"
b11100 %"
b11100 +
b11100 .
b11100 3
b11100 $"
b11100 2
b11100 ("
b11100 *"
1(
#160
0(
#170
b0 1
b0 g
b0 /"
1N
b0 8
b0 s
b0 x
b11000000 =
b11000000 o
b11000000 v
b0 :
b0 q
b0 +"
b100000000100 [
b11100 G
b11100 b
b11100 ."
1L
1I
b100000 M
b100000 O
b100000 )"
b100000 J
b100000 P
b100000 `
b1100010111 5
b1100010111 ~
b1100010111 &"
b1100010111 ,
b1100010111 -
b1100010111 /
b1100010111 '"
b110 m
b0 h
b0 i
b1101111 j
b0 R
b101 V
b1100111 W
b101 H
b101 a
b101 -"
b100000 4
b100000 !"
b100000 %"
b100000 +
b100000 .
b100000 3
b100000 $"
b100000 2
b100000 ("
b100000 *"
b11100 >
b11100 c
b11100 t
b11100 6
b11100 l
b11100 ""
b1100000000000000000001101111 ?
b1100000000000000000001101111 d
b1100000000000000000001101111 u
b1100000000000000000001101111 7
b1100000000000000000001101111 k
b1100000000000000000001101111 #"
b101 C
b101 U
b101 {
b0 @
b0 Q
b0 }
0Z
b100000 A
b100000 S
b100000 |
b110000001011100111 E
b110000001011100111 \
b110000001011100111 z
b11000 D
b11000 ]
b11000 y
1(
#180
0(
#190
0N
b0 [
0L
0I
b0 T
b0 V
b10011 W
0F
b0 G
b0 b
b0 ."
b0 H
b0 a
b0 -"
b0 M
b0 O
b0 )"
b0 J
b0 P
b0 `
b0 m
b10011 j
b0 =
b0 o
b0 v
0B
b0 C
b0 U
b0 {
1Z
b0 A
b0 S
b0 |
b10011 E
b10011 \
b10011 z
b0 D
b0 ]
b0 y
b0 >
b0 c
b0 t
b0 6
b0 l
b0 ""
b10011 ?
b10011 d
b10011 u
b10011 7
b10011 k
b10011 #"
1(
#200
0(
#210
b110 8
b110 s
b110 x
b11111111110000110000001100010011 5
b11111111110000110000001100010011 ~
b11111111110000110000001100010011 &"
b11111111110000110000001100010011 ,
b11111111110000110000001100010011 -
b11111111110000110000001100010011 /
b11111111110000110000001100010011 '"
b110 i
b10111 j
1F
b100100 4
b100100 !"
b100100 %"
b100100 +
b100100 .
b100100 3
b100100 $"
b100100 2
b100100 ("
b100100 *"
b100000 >
b100000 c
b100000 t
b100000 6
b100000 l
b100000 ""
b1100010111 ?
b1100010111 d
b1100010111 u
b1100010111 7
b1100010111 k
b1100010111 #"
1B
1(
#220
0(
#230
b100000 1
b100000 g
b100000 /"
b110 [
b100000 G
b100000 b
b100000 ."
b11111111111111111111111111111100 <
b11111111111111111111111111111100 p
b11111111111111111111111111111100 w
b110 :
b110 q
b110 +"
b110 V
b10111 W
b110 H
b110 a
b110 -"
b1111111 m
b11100 f
b110 h
b10011 j
b100000 =
b100000 o
b100000 v
b1010011000101001101001100011 5
b1010011000101001101001100011 ~
b1010011000101001101001100011 &"
b1010011000101001101001100011 ,
b1010011000101001101001100011 -
b1010011000101001101001100011 /
b1010011000101001101001100011 '"
b110 C
b110 U
b110 {
b1100010111 E
b1100010111 \
b1100010111 z
b100000 D
b100000 ]
b100000 y
b100100 >
b100100 c
b100100 t
b100100 6
b100100 l
b100100 ""
b11111111110000110000001100010011 ?
b11111111110000110000001100010011 d
b11111111110000110000001100010011 u
b11111111110000110000001100010011 7
b11111111110000110000001100010011 k
b11111111110000110000001100010011 #"
b101000 4
b101000 !"
b101000 %"
b101000 +
b101000 .
b101000 3
b101000 $"
b101000 2
b101000 ("
b101000 *"
1(
#240
0(
#250
b11100 0
b11100 e
b11100 0"
0;
b0 8
b0 s
b0 x
b11100 <
b11100 p
b11100 w
b11100 =
b11100 o
b11100 v
b110 9
b110 r
b110 ,"
b101 :
b101 q
b101 +"
b11111111111111111111011111100110 [
b11100 1
b11100 g
b11100 /"
b10000000000000110010011 5
b10000000000000110010011 ~
b10000000000000110010011 &"
b10000000000000110010011 ,
b10000000000000110010011 -
b10000000000000110010011 /
b10000000000000110010011 '"
b101 m
b110 f
b101 h
b1 n
b10100 i
b1100011 j
b1111111 ^
b11100 R
b110 T
b10011 W
b11100 G
b11100 b
b11100 ."
b101100 4
b101100 !"
b101100 %"
b101100 +
b101100 .
b101100 3
b101100 $"
b101100 2
b101100 ("
b101100 *"
b101000 >
b101000 c
b101000 t
b101000 6
b101000 l
b101000 ""
b1010011000101001101001100011 ?
b1010011000101001101001100011 d
b1010011000101001101001100011 u
b1010011000101001101001100011 7
b1010011000101001101001100011 k
b1010011000101001101001100011 #"
1X
b11111111111111111111111111111100 @
b11111111111111111111111111111100 Q
b11111111111111111111111111111100 }
0Z
b100000 A
b100000 S
b100000 |
b11111111110000110000001100010011 E
b11111111110000110000001100010011 \
b11111111110000110000001100010011 z
b100100 D
b100100 ]
b100100 y
1(
#260
0(
#270
b0 =
b0 o
b0 v
b10110100 [
b0 0
b0 e
b0 0"
b0 1
b0 g
b0 /"
1;
b11 8
b11 s
b11 x
b100 <
b100 p
b100 w
b0 9
b0 r
b0 ,"
b0 :
b0 q
b0 +"
b101 ^
b110 R
b101 T
b1 _
b10100 V
b1100011 W
0F
b0 G
b0 b
b0 ."
b0 H
b0 a
b0 -"
b0 m
b100 f
b0 h
b0 n
b11 i
b10011 j
b1000010011 5
b1000010011 ~
b1000010011 &"
b1000010011 ,
b1000010011 -
b1000010011 /
b1000010011 '"
0B
b0 C
b0 U
b0 {
0X
1Z
b11100 @
b11100 Q
b11100 }
b11100 A
b11100 S
b11100 |
b1010011000101001101001100011 E
b1010011000101001101001100011 \
b1010011000101001101001100011 z
b101000 D
b101000 ]
b101000 y
b101100 >
b101100 c
b101100 t
b101100 6
b101100 l
b101100 ""
b10000000000000110010011 ?
b10000000000000110010011 d
b10000000000000110010011 u
b10000000000000110010011 7
b10000000000000110010011 k
b10000000000000110010011 #"
b110000 4
b110000 !"
b110000 %"
b110000 +
b110000 .
b110000 3
b110000 $"
b110000 2
b110000 ("
b110000 *"
1(
#280
0(
#290
b100 8
b100 s
b100 x
b0 <
b0 p
b0 w
b100000000010 [
1F
b100 G
b100 b
b100 ."
b11 H
b11 a
b11 -"
0N
b1100010111 5
b1100010111 ~
b1100010111 &"
b1100010111 ,
b1100010111 -
b1100010111 /
b1100010111 '"
b0 f
b100 i
b0 ^
b100 R
b0 T
b0 _
b11 V
b10011 W
0L
0I
b0 M
b0 O
b0 )"
b0 J
b0 P
b0 `
b110100 4
b110100 !"
b110100 %"
b110100 +
b110100 .
b110100 3
b110100 $"
b110100 2
b110100 ("
b110100 *"
b110000 >
b110000 c
b110000 t
b110000 6
b110000 l
b110000 ""
b1000010011 ?
b1000010011 d
b1000010011 u
b1000010011 7
b1000010011 k
b1000010011 #"
1B
b11 C
b11 U
b11 {
b100 @
b100 Q
b100 }
1X
1Y
0Z
b0 A
b0 S
b0 |
b10000000000000110010011 E
b10000000000000110010011 \
b10000000000000110010011 z
b101100 D
b101100 ]
b101100 y
1(
#300
0(
#310
b100 [
b110 8
b110 s
b110 x
b0 R
b100 V
b0 G
b0 b
b0 ."
b100 H
b100 a
b100 -"
b110 i
b10111 j
b1000000110000001100010011 5
b1000000110000001100010011 ~
b1000000110000001100010011 &"
b1000000110000001100010011 ,
b1000000110000001100010011 -
b1000000110000001100010011 /
b1000000110000001100010011 '"
b100 C
b100 U
b100 {
0X
0Y
1Z
b0 @
b0 Q
b0 }
b1000010011 E
b1000010011 \
b1000010011 z
b110000 D
b110000 ]
b110000 y
b100 &
b110100 >
b110100 c
b110100 t
b110100 6
b110100 l
b110100 ""
b1100010111 ?
b1100010111 d
b1100010111 u
b1100010111 7
b1100010111 k
b1100010111 #"
b111000 4
b111000 !"
b111000 %"
b111000 +
b111000 .
b111000 3
b111000 $"
b111000 2
b111000 ("
b111000 *"
1(
#320
0(
#330
b110100 1
b110100 g
b110100 /"
b10000 <
b10000 p
b10000 w
b110 :
b110 q
b110 +"
b110 [
b110100 G
b110100 b
b110100 ."
b110000100111100111 5
b110000100111100111 ~
b110000100111100111 &"
b110000100111100111 ,
b110000100111100111 -
b110000100111100111 /
b110000100111100111 '"
b10000 f
b110 h
b10011 j
b110100 =
b110100 o
b110100 v
b110 V
b10111 W
b110 H
b110 a
b110 -"
b111100 4
b111100 !"
b111100 %"
b111100 +
b111100 .
b111100 3
b111100 $"
b111100 2
b111100 ("
b111100 *"
b111000 >
b111000 c
b111000 t
b111000 6
b111000 l
b111000 ""
b1000000110000001100010011 ?
b1000000110000001100010011 d
b1000000110000001100010011 u
b1000000110000001100010011 7
b1000000110000001100010011 k
b1000000110000001100010011 #"
b110 C
b110 U
b110 {
b1100010111 E
b1100010111 \
b1100010111 z
b110100 D
b110100 ]
b110100 y
1(
#340
0(
#350
b1000100 =
b1000100 o
b1000100 v
b1000100 1
b1000100 g
b1000100 /"
b10011 8
b10011 s
b10011 x
b0 <
b0 p
b0 w
b10000 R
b110 T
b10011 W
b1000100 G
b1000100 b
b1000100 ."
b0 f
b10011 i
b1100111 j
b1000001100000001111001100011 5
b1000001100000001111001100011 ~
b1000001100000001111001100011 &"
b1000001100000001111001100011 ,
b1000001100000001111001100011 -
b1000001100000001111001100011 /
b1000001100000001111001100011 '"
b10000 @
b10000 Q
b10000 }
0Z
b110100 A
b110100 S
b110100 |
b1000000110000001100010011 E
b1000000110000001100010011 \
b1000000110000001100010011 z
b111000 D
b111000 ]
b111000 y
b111100 >
b111100 c
b111100 t
b111100 6
b111100 l
b111100 ""
b110000100111100111 ?
b110000100111100111 d
b110000100111100111 u
b110000100111100111 7
b110000100111100111 k
b110000100111100111 #"
b1000000 4
b1000000 !"
b1000000 %"
b1000000 +
b1000000 .
b1000000 3
b1000000 $"
b1000000 2
b1000000 ("
b1000000 *"
1(
#360
0(
#370
b100 <
b100 p
b100 w
b0 =
b0 o
b0 v
b100 0
b100 e
b100 0"
b0 1
b0 g
b0 /"
1N
0;
b0 8
b0 s
b0 x
b11 9
b11 r
b11 ,"
b0 :
b0 q
b0 +"
b100000010010 [
b1000000 G
b1000000 b
b1000000 ."
1L
1I
b1000100 M
b1000100 O
b1000100 )"
b1000100 J
b1000100 P
b1000100 `
b100100000001000010011 5
b100100000001000010011 ~
b100100000001000010011 &"
b100100000001000010011 ,
b100100000001000010011 -
b100100000001000010011 /
b100100000001000010011 '"
b100 m
b11 f
b0 h
b1 n
b11100 i
b1100011 j
b0 R
b10011 V
b1100111 W
b10011 H
b10011 a
b10011 -"
b1000100 4
b1000100 !"
b1000100 %"
b1000100 +
b1000100 .
b1000100 3
b1000100 $"
b1000100 2
b1000100 ("
b1000100 *"
b1000000 >
b1000000 c
b1000000 t
b1000000 6
b1000000 l
b1000000 ""
b1000001100000001111001100011 ?
b1000001100000001111001100011 d
b1000001100000001111001100011 u
b1000001100000001111001100011 7
b1000001100000001111001100011 k
b1000001100000001111001100011 #"
b10011 C
b10011 U
b10011 {
b0 @
b0 Q
b0 }
b1000100 A
b1000100 S
b1000100 |
b110000100111100111 E
b110000100111100111 \
b110000100111100111 z
b111100 D
b111100 ]
b111100 y
1(
#380
0(
#390
0N
b0 [
0L
0I
b0 0
b0 e
b0 0"
1;
b0 <
b0 p
b0 w
b0 9
b0 r
b0 ,"
b0 T
b0 V
b10011 W
0F
b0 G
b0 b
b0 ."
b0 H
b0 a
b0 -"
b0 M
b0 O
b0 )"
b0 J
b0 P
b0 `
b0 m
b0 f
b0 n
b0 i
b10011 j
0B
b0 C
b0 U
b0 {
1Z
b0 A
b0 S
b0 |
b10011 E
b10011 \
b10011 z
b0 D
b0 ]
b0 y
b0 >
b0 c
b0 t
b0 6
b0 l
b0 ""
b10011 ?
b10011 d
b10011 u
b10011 7
b10011 k
b10011 #"
1(
#400
0(
#410
b100 8
b100 s
b100 x
b1 <
b1 p
b1 w
b100 :
b100 q
b100 +"
b1000000000001010010011 5
b1000000000001010010011 ~
b1000000000001010010011 &"
b1000000000001010010011 ,
b1000000000001010010011 -
b1000000000001010010011 /
b1000000000001010010011 '"
b1 f
b100 h
b100 i
1F
b1001000 4
b1001000 !"
b1001000 %"
b1001000 +
b1001000 .
b1001000 3
b1001000 $"
b1001000 2
b1001000 ("
b1001000 *"
b1000100 >
b1000100 c
b1000100 t
b1000100 6
b1000100 l
b1000100 ""
b100100000001000010011 ?
b100100000001000010011 d
b100100000001000010011 u
b100100000001000010011 7
b100100000001000010011 k
b100100000001000010011 #"
1B
1(
#420
0(
#430
b100 [
b101 8
b101 s
b101 x
b10 <
b10 p
b10 w
b0 :
b0 q
b0 +"
b1 R
b100 T
b100 V
b1 G
b1 b
b1 ."
b100 H
b100 a
b100 -"
b10 f
b0 h
b101 i
b11111110010100100001010011100011 5
b11111110010100100001010011100011 ~
b11111110010100100001010011100011 &"
b11111110010100100001010011100011 ,
b11111110010100100001010011100011 -
b11111110010100100001010011100011 /
b11111110010100100001010011100011 '"
b100 C
b100 U
b100 {
1X
1Y
0Z
b1 @
b1 Q
b1 }
b100100000001000010011 E
b100100000001000010011 \
b100100000001000010011 z
b1000100 D
b1000100 ]
b1000100 y
b1001000 >
b1001000 c
b1001000 t
b1001000 6
b1001000 l
b1001000 ""
b1000000000001010010011 ?
b1000000000001010010011 d
b1000000000001010010011 u
b1000000000001010010011 7
b1000000000001010010011 k
b1000000000001010010011 #"
b1001100 4
b1001100 !"
b1001100 %"
b1001100 +
b1001100 .
b1001100 3
b1001100 $"
b1001100 2
b1001100 ("
b1001100 *"
1(
#440
0(
#450
b1 =
b1 o
b1 v
b10 0
b10 e
b10 0"
b1 1
b1 g
b1 /"
0;
b0 8
b0 s
b0 x
b10 <
b10 p
b10 w
b101 9
b101 r
b101 ,"
b100 :
b100 q
b100 +"
b100000000100 [
b10100000000000110010011 5
b10100000000000110010011 ~
b10100000000000110010011 &"
b10100000000000110010011 ,
b10100000000000110010011 -
b10100000000000110010011 /
b10100000000000110010011 '"
b1111111 m
b101 f
b100 h
b1 n
b1001 i
b1100011 j
b10 R
b0 T
b101 V
b10 G
b10 b
b10 ."
b101 H
b101 a
b101 -"
b1010000 4
b1010000 !"
b1010000 %"
b1010000 +
b1010000 .
b1010000 3
b1010000 $"
b1010000 2
b1010000 ("
b1010000 *"
b1001100 >
b1001100 c
b1001100 t
b1001100 6
b1001100 l
b1001100 ""
b11111110010100100001010011100011 ?
b11111110010100100001010011100011 d
b11111110010100100001010011100011 u
b11111110010100100001010011100011 7
b11111110010100100001010011100011 k
b11111110010100100001010011100011 #"
b101 C
b101 U
b101 {
b10 @
b10 Q
b10 }
b1000000000001010010011 E
b1000000000001010010011 \
b1000000000001010010011 z
b1001000 D
b1001000 ]
b1001000 y
1(
#460
0(
#470
1N
b0 =
b0 o
b0 v
b11111111111111111111111111101000 [
1L
1I
b110100 M
b110100 O
b110100 )"
b110100 J
b110100 P
b110100 `
b0 0
b0 e
b0 0"
b0 1
b0 g
b0 /"
1;
b11 8
b11 s
b11 x
b101 <
b101 p
b101 w
b0 9
b0 r
b0 ,"
b0 :
b0 q
b0 +"
b1111111 ^
b101 R
b100 T
b1 _
b1001 V
b1100011 W
0F
b0 G
b0 b
b0 ."
b0 H
b0 a
b0 -"
b0 m
b0 h
b0 n
b11 i
b10011 j
b1000010011 5
b1000010011 ~
b1000010011 &"
b1000010011 ,
b1000010011 -
b1000010011 /
b1000010011 '"
0B
b0 C
b0 U
b0 {
b1 A
b1 S
b1 |
b11111110010100100001010011100011 E
b11111110010100100001010011100011 \
b11111110010100100001010011100011 z
b1001100 D
b1001100 ]
b1001100 y
b1010000 >
b1010000 c
b1010000 t
b1010000 6
b1010000 l
b1010000 ""
b10100000000000110010011 ?
b10100000000000110010011 d
b10100000000000110010011 u
b10100000000000110010011 7
b10100000000000110010011 k
b10100000000000110010011 #"
b1010100 4
b1010100 !"
b1010100 %"
b1010100 +
b1010100 .
b1010100 3
b1010100 $"
b1010100 2
b1010100 ("
b1010100 *"
1(
#480
0(
