sim/rsicv.vcd
$date
	Tue Jul 12 17:33:23 2022
$end
$version
	Icarus Verilog
$end
$timescale
	1s
$end
$scope module tb_riscv $end
$var wire 32 ! x1 [31:0] $end
$var wire 32 " x2 [31:0] $end
$var wire 32 # x26 [31:0] $end
$var wire 32 $ x27 [31:0] $end
$var wire 32 % x29 [31:0] $end
$var wire 32 & x3 [31:0] $end
$var wire 32 ' x30 [31:0] $end
$var reg 1 ( clk $end
$var reg 1 ) rst_n $end
$var integer 32 * r [31:0] $end
$scope module m_riscv_soc $end
$var wire 1 ( clk $end
$var wire 1 ) rst_n $end
$var wire 32 + inst_addr [31:0] $end
$var wire 32 , inst [31:0] $end
$scope module m_rom $end
$var wire 32 - inst_o [31:0] $end
$var wire 32 . inst_addr_i [31:0] $end
$upscope $end
$scope module top $end
$var wire 1 ( clk $end
$var wire 32 / inst_i [31:0] $end
$var wire 1 ) rst_n $end
$var wire 32 0 regs_rs2_data [31:0] $end
$var wire 32 1 regs_rs1_data [31:0] $end
$var wire 32 2 pc_io [31:0] $end
$var wire 32 3 inst_addr_o [31:0] $end
$var wire 32 4 if_inst_addr [31:0] $end
$var wire 32 5 if_inst [31:0] $end
$var wire 32 6 if_id_inst_addr [31:0] $end
$var wire 32 7 if_id_inst [31:0] $end
$var wire 5 8 id_wd_addr [4:0] $end
$var wire 5 9 id_rs2_addr [4:0] $end
$var wire 5 : id_rs1_addr [4:0] $end
$var wire 1 ; id_reg_wen $end
$var wire 32 < id_op_2 [31:0] $end
$var wire 32 = id_op_1 [31:0] $end
$var wire 32 > id_inst_addr [31:0] $end
$var wire 32 ? id_inst [31:0] $end
$var wire 32 @ id_ex_rs2_data [31:0] $end
$var wire 32 A id_ex_rs1_data [31:0] $end
$var wire 1 B id_ex_rd_wen $end
$var wire 5 C id_ex_rd_addr [4:0] $end
$var wire 32 D id_ex_inst_addr [31:0] $end
$var wire 32 E id_ex_inst [31:0] $end
$var wire 1 F ex_rd_wen $end
$var wire 32 G ex_rd_data [31:0] $end
$var wire 5 H ex_rd_addr [4:0] $end
$var wire 1 I ex_jump_ena $end
$var wire 32 J ex_jump_addr [31:0] $end
$var wire 1 K ex_hold_flag $end
$var wire 1 L ctrl_jump_ena $end
$var wire 32 M ctrl_jump_addr [31:0] $end
$var wire 1 N ctrl_hold_flag $end
$scope module m_ctrl $end
$var wire 1 N hold_flag_o $end
$var wire 32 O jump_addr_o [31:0] $end
$var wire 1 L jump_ena_o $end
$var wire 1 I jump_ena_i $end
$var wire 32 P jump_addr_i [31:0] $end
$var wire 1 K hold_flag_i $end
$upscope $end
$scope module m_ex $end
$var wire 32 Q rs2_data_i [31:0] $end
$var wire 5 R rs2 [4:0] $end
$var wire 32 S rs1_data_i [31:0] $end
$var wire 5 T rs1 [4:0] $end
$var wire 1 B rd_wen_i $end
$var wire 5 U rd_addr_i [4:0] $end
$var wire 5 V rd [4:0] $end
$var wire 7 W opcode [6:0] $end
$var wire 1 X op1_i_equal_op2_i $end
$var wire 32 Y jump_imm [31:0] $end
$var wire 32 Z inst_i [31:0] $end
$var wire 32 [ inst_addr_i [31:0] $end
$var wire 7 \ func7 [6:0] $end
$var wire 3 ] func3 [2:0] $end
$var reg 1 K hold_flag_o $end
$var reg 32 ^ jump_addr_o [31:0] $end
$var reg 1 I jump_ena_o $end
$var reg 5 _ rd_addr_o [4:0] $end
$var reg 32 ` rd_data_o [31:0] $end
$var reg 1 F rd_wen_o $end
$upscope $end
$scope module m_id $end
$var wire 32 a inst_addr_o [31:0] $end
$var wire 32 b inst_o [31:0] $end
$var wire 32 c rs2_data_i [31:0] $end
$var wire 5 d rs2 [4:0] $end
$var wire 32 e rs1_data_i [31:0] $end
$var wire 5 f rs1 [4:0] $end
$var wire 5 g rd [4:0] $end
$var wire 7 h opcode [6:0] $end
$var wire 32 i inst_i [31:0] $end
$var wire 32 j inst_addr_i [31:0] $end
$var wire 7 k func7 [6:0] $end
$var wire 3 l func3 [2:0] $end
$var reg 32 m op_1_o [31:0] $end
$var reg 32 n op_2_o [31:0] $end
$var reg 1 ; reg_wen $end
$var reg 5 o rs1_addr_o [4:0] $end
$var reg 5 p rs2_addr_o [4:0] $end
$var reg 5 q wd_addr_o [4:0] $end
$upscope $end
$scope module m_id_ex $end
$var wire 1 ( clk $end
$var wire 1 N hold_flag_i $end
$var wire 32 r inst_addr_i [31:0] $end
$var wire 32 s inst_i [31:0] $end
$var wire 1 ; rd_wen_i $end
$var wire 32 t rs1_data_i [31:0] $end
$var wire 32 u rs2_data_i [31:0] $end
$var wire 1 ) rst_n $end
$var wire 5 v wd_addr_i [4:0] $end
$var reg 32 w inst_addr_o [31:0] $end
$var reg 32 x inst_o [31:0] $end
$var reg 5 y rd_addr_o [4:0] $end
$var reg 1 B rd_wen_o $end
$var reg 32 z rs1_data_o [31:0] $end
$var reg 32 { rs2_data_o [31:0] $end
$upscope $end
$scope module m_if_id $end
$var wire 1 ( clk $end
$var wire 1 N hold_flag_i $end
$var wire 1 ) rst_n $end
$var wire 32 | inst_i [31:0] $end
$var wire 32 } inst_addr_i [31:0] $end
$var reg 32 ~ inst_addr_o [31:0] $end
$var reg 32 !" inst_o [31:0] $end
$upscope $end
$scope module m_ifeach $end
$var wire 32 "" if_rom_addr_o [31:0] $end
$var wire 32 #" inst_addr_o [31:0] $end
$var wire 32 $" inst_o [31:0] $end
$var wire 32 %" rom_inst_i [31:0] $end
$var wire 32 &" pc_addr_i [31:0] $end
$upscope $end
$scope module m_pc_reg $end
$var wire 1 ( clk $end
$var wire 32 '" jump_addr_i [31:0] $end
$var wire 1 L jump_ena_i $end
$var wire 1 ) rst_n $end
$var reg 32 (" pc_o [31:0] $end
$upscope $end
$scope module m_regs $end
$var wire 1 ( clk $end
$var wire 5 )" reg1_raddr_i [4:0] $end
$var wire 5 *" reg2_raddr_i [4:0] $end
$var wire 5 +" reg_waddr_i [4:0] $end
$var wire 32 ," reg_wdata_i [31:0] $end
$var wire 1 F reg_wen $end
$var wire 1 ) rst_n $end
$var reg 32 -" reg1_rdata_o [31:0] $end
$var reg 32 ." reg2_rdata_o [31:0] $end
$var integer 32 /" i [31:0] $end
$upscope $end
$upscope $end
$upscope $end
$upscope $end
$enddefinitions $end
#0
$dumpvars
bx /"
b0 ."
b0 -"
b0 ,"
b0 +"
b0 *"
b0 )"
bx ("
b0 '"
bx &"
bx %"
bx $"
bx #"
bx ""
bx !"
bx ~
bx }
bx |
bx {
bx z
bx y
bx x
bx w
b0 v
b0 u
b0 t
bx s
bx r
b0 q
b0 p
b0 o
b0 n
b0 m
bx l
bx k
bx j
bx i
bx h
bx g
bx f
b0 e
bx d
b0 c
bx b
bx a
b0 `
b0 _
b0 ^
bx ]
bx \
bx [
bx Z
bx0 Y
xX
bx W
bx V
bx U
bx T
bx S
bx R
bx Q
b0 P
b0 O
0N
b0 M
0L
0K
b0 J
0I
b0 H
b0 G
0F
bx E
bx D
bx C
xB
bx A
bx @
bx ?
bx >
b0 =
b0 <
0;
b0 :
b0 9
b0 8
bx 7
bx 6
bx 5
bx 4
bx 3
bx 2
b0 1
b0 0
bx /
bx .
bx -
bx ,
bx +
bx *
0)
0(
bx '
bx &
bx %
bx $
bx #
bx "
bx !
$end
#10
1;
b0 Y
b110100010011 5
b110100010011 |
b110100010011 $"
b110100010011 ,
b110100010011 -
b110100010011 /
b110100010011 %"
b0 k
b0 d
b0 f
b0 l
b0 g
b10011 h
b0 \
b0 R
b0 T
b0 ]
b0 V
b10011 W
b0 4
b0 }
b0 #"
b0 +
b0 .
b0 3
b0 ""
b0 2
b0 &"
b0 ("
b0 >
b0 a
b0 r
b0 6
b0 j
b0 ~
b10011 ?
b10011 b
b10011 s
b10011 7
b10011 i
b10011 !"
b0 '
b0 %
b0 $
b0 #
b0 &
b0 "
b0 !
0B
b0 C
b0 U
b0 y
1X
b0 @
b0 Q
b0 {
b0 A
b0 S
b0 z
b10011 E
b10011 Z
b10011 x
b0 D
b0 [
b0 w
b100000 /"
1(
#20
0(
#30
b11010 8
b11010 q
b11010 v
1F
b11010 g
b110110010011 5
b110110010011 |
b110110010011 $"
b110110010011 ,
b110110010011 -
b110110010011 /
b110110010011 %"
1B
b110100010011 ?
b110100010011 b
b110100010011 s
b110100010011 7
b110100010011 i
b110100010011 !"
b100 4
b100 }
b100 #"
b100 +
b100 .
b100 3
b100 ""
b100 2
b100 &"
b100 ("
1(
1)
#40
0(
#50
b11011 8
b11011 q
b11011 v
b11010 Y
b10010011 5
b10010011 |
b10010011 $"
b10010011 ,
b10010011 -
b10010011 /
b10010011 %"
b11011 g
b11010 H
b11010 _
b11010 +"
b11010 V
b1000 4
b1000 }
b1000 #"
b1000 +
b1000 .
b1000 3
b1000 ""
b1000 2
b1000 &"
b1000 ("
b100 >
b100 a
b100 r
b100 6
b100 j
b100 ~
b110110010011 ?
b110110010011 b
b110110010011 s
b110110010011 7
b110110010011 i
b110110010011 !"
b11010 C
b11010 U
b11010 y
b110100010011 E
b110100010011 Z
b110100010011 x
1(
#60
0(
#70
b100000011010 Y
b1 8
b1 q
b1 v
b11011 V
b11011 H
b11011 _
b11011 +"
b1 g
b1000111100010011 5
b1000111100010011 |
b1000111100010011 $"
b1000111100010011 ,
b1000111100010011 -
b1000111100010011 /
b1000111100010011 %"
b11011 C
b11011 U
b11011 y
b110110010011 E
b110110010011 Z
b110110010011 x
b100 D
b100 [
b100 w
b1000 >
b1000 a
b1000 r
b1000 6
b1000 j
b1000 ~
b10010011 ?
b10010011 b
b10010011 s
b10010011 7
b10010011 i
b10010011 !"
b1100 4
b1100 }
b1100 #"
b1100 +
b1100 .
b1100 3
b1100 ""
b1100 2
b1100 &"
b1100 ("
1(
#80
0(
#90
b11110 8
b11110 q
b11110 v
b1 :
b1 o
b1 )"
b100000000000 Y
b111010010011 5
b111010010011 |
b111010010011 $"
b111010010011 ,
b111010010011 -
b111010010011 /
b111010010011 %"
b1 f
b11110 g
b1 V
b1 H
b1 _
b1 +"
b10000 4
b10000 }
b10000 #"
b10000 +
b10000 .
b10000 3
b10000 ""
b10000 2
b10000 &"
b10000 ("
b1100 >
b1100 a
b1100 r
b1100 6
b1100 j
b1100 ~
b1000111100010011 ?
b1000111100010011 b
b1000111100010011 s
b1000111100010011 7
b1000111100010011 i
b1000111100010011 !"
b1 C
b1 U
b1 y
b10010011 E
b10010011 Z
b10010011 x
b1000 D
b1000 [
b1000 w
1(
#100
0(
#110
b11110 Y
b11101 8
b11101 q
b11101 v
b0 :
b0 o
b0 )"
b1 T
b11110 V
b11110 H
b11110 _
b11110 +"
b0 f
b11101 g
b1000000000000110010011 5
b1000000000000110010011 |
b1000000000000110010011 $"
b1000000000000110010011 ,
b1000000000000110010011 -
b1000000000000110010011 /
b1000000000000110010011 %"
b11110 C
b11110 U
b11110 y
b1000111100010011 E
b1000111100010011 Z
b1000111100010011 x
b1100 D
b1100 [
b1100 w
b10000 >
b10000 a
b10000 r
b10000 6
b10000 j
b10000 ~
b111010010011 ?
b111010010011 b
b111010010011 s
b111010010011 7
b111010010011 i
b111010010011 !"
b10100 4
b10100 }
b10100 #"
b10100 +
b10100 .
b10100 3
b10100 ""
b10100 2
b10100 &"
b10100 ("
1(
#120
0(
#130
b11 8
b11 q
b11 v
b10 <
b10 n
b10 u
b100000011100 Y
b100111110111110001110001100011 5
b100111110111110001110001100011 |
b100111110111110001110001100011 $"
b100111110111110001110001100011 ,
b100111110111110001110001100011 -
b100111110111110001110001100011 /
b100111110111110001110001100011 %"
b10 d
b11 g
b0 T
b11101 V
b11101 H
b11101 _
b11101 +"
b11000 4
b11000 }
b11000 #"
b11000 +
b11000 .
b11000 3
b11000 ""
b11000 2
b11000 &"
b11000 ("
b10100 >
b10100 a
b10100 r
b10100 6
b10100 j
b10100 ~
b1000000000000110010011 ?
b1000000000000110010011 b
b1000000000000110010011 s
b1000000000000110010011 7
b1000000000000110010011 i
b1000000000000110010011 !"
b11101 C
b11101 U
b11101 y
b111010010011 E
b111010010011 Z
b111010010011 x
b10000 D
b10000 [
b10000 w
1(
#140
0(
#150
b100000000010 Y
0;
b0 8
b0 q
b0 v
b0 <
b0 n
b0 u
b11101 9
b11101 p
b11101 *"
b11110 :
b11110 o
b11110 )"
b10 R
b11 V
b10 G
b10 `
b10 ,"
b11 H
b11 _
b11 +"
b10011 k
b11101 d
b11110 f
b1 l
b11000 g
b1100011 h
b100000000000010010011 5
b100000000000010010011 |
b100000000000010010011 $"
b100000000000010010011 ,
b100000000000010010011 -
b100000000000010010011 /
b100000000000010010011 %"
b11 C
b11 U
b11 y
0X
b10 @
b10 Q
b10 {
b1000000000000110010011 E
b1000000000000110010011 Z
b1000000000000110010011 x
b10100 D
b10100 [
b10100 w
b11000 >
b11000 a
b11000 r
b11000 6
b11000 j
b11000 ~
b100111110111110001110001100011 ?
b100111110111110001110001100011 b
b100111110111110001110001100011 s
b100111110111110001110001100011 7
b100111110111110001110001100011 i
b100111110111110001110001100011 !"
b11100 4
b11100 }
b11100 #"
b11100 +
b11100 .
b11100 3
b11100 ""
b11100 2
b11100 &"
b11100 ("
1(
#160
0(
#170
1;
b1 8
b1 q
b1 v
b1 <
b1 n
b1 u
b0 9
b0 p
b0 *"
b0 :
b0 o
b0 )"
b1001111000 Y
b100001000111100010011 5
b100001000111100010011 |
b100001000111100010011 $"
b100001000111100010011 ,
b100001000111100010011 -
b100001000111100010011 /
b100001000111100010011 %"
b0 k
b1 d
b0 f
b0 l
b1 g
b10011 h
b10011 \
b11101 R
b11110 T
b1 ]
b11000 V
b1100011 W
0F
b0 G
b0 `
b0 ,"
b0 H
b0 _
b0 +"
b100000 4
b100000 }
b100000 #"
b100000 +
b100000 .
b100000 3
b100000 ""
b100000 2
b100000 &"
b100000 ("
b11100 >
b11100 a
b11100 r
b11100 6
b11100 j
b11100 ~
b100000000000010010011 ?
b100000000000010010011 b
b100000000000010010011 s
b100000000000010010011 7
b100000000000010010011 i
b100000000000010010011 !"
b10 &
0B
b0 C
b0 U
b0 y
1X
b0 @
b0 Q
b0 {
b100111110111110001110001100011 E
b100111110111110001110001100011 Z
b100111110111110001110001100011 x
b11000 D
b11000 [
b11000 w
1(
#180
0(
#190
b1 =
b1 m
b1 t
b1 1
b1 e
b1 -"
b100000000000 Y
1F
b1 G
b1 `
b1 ,"
b1 H
b1 _
b1 +"
0N
b11110 8
b11110 q
b11110 v
b1 :
b1 o
b1 )"
b0 \
b1 R
b0 T
b0 ]
b1 V
b10011 W
0L
0I
b0 M
b0 O
b0 '"
b0 J
b0 P
b0 ^
b1 f
b11110 g
b1000000000111010010011 5
b1000000000111010010011 |
b1000000000111010010011 $"
b1000000000111010010011 ,
b1000000000111010010011 -
b1000000000111010010011 /
b1000000000111010010011 %"
1B
b1 C
b1 U
b1 y
0X
b1 @
b1 Q
b1 {
b100000000000010010011 E
b100000000000010010011 Z
b100000000000010010011 x
b11100 D
b11100 [
b11100 w
b100000 >
b100000 a
b100000 r
b100000 6
b100000 j
b100000 ~
b100001000111100010011 ?
b100001000111100010011 b
b100001000111100010011 s
b100001000111100010011 7
b100001000111100010011 i
b100001000111100010011 !"
b100100 4
b100100 }
b100100 #"
b100100 +
b100100 .
b100100 3
b100100 ""
b100100 2
b100100 &"
b100100 ("
1(
#200
0(
#210
b0 =
b0 m
b0 t
b0 1
b0 e
b0 -"
b11101 8
b11101 q
b11101 v
b10 <
b10 n
b10 u
b0 :
b0 o
b0 )"
b11110 Y
b1100000000000110010011 5
b1100000000000110010011 |
b1100000000000110010011 $"
b1100000000000110010011 ,
b1100000000000110010011 -
b1100000000000110010011 /
b1100000000000110010011 %"
b10 d
b0 f
b11101 g
b1 T
b11110 V
b10 G
b10 `
b10 ,"
b11110 H
b11110 _
b11110 +"
b101000 4
b101000 }
b101000 #"
b101000 +
b101000 .
b101000 3
b101000 ""
b101000 2
b101000 &"
b101000 ("
b100100 >
b100100 a
b100100 r
b100100 6
b100100 j
b100100 ~
b1000000000111010010011 ?
b1000000000111010010011 b
b1000000000111010010011 s
b1000000000111010010011 7
b1000000000111010010011 i
b1000000000111010010011 !"
b1 !
b11110 C
b11110 U
b11110 y
1X
b1 A
b1 S
b1 z
b100001000111100010011 E
b100001000111100010011 Z
b100001000111100010011 x
b100000 D
b100000 [
b100000 w
1(
#220
0(
#230
b100000011100 Y
b11 8
b11 q
b11 v
b11 <
b11 n
b11 u
b10 R
b0 T
b11101 V
b11101 H
b11101 _
b11101 +"
b11 d
b11 g
b100111110111110001001001100011 5
b100111110111110001001001100011 |
b100111110111110001001001100011 $"
b100111110111110001001001100011 ,
b100111110111110001001001100011 -
b100111110111110001001001100011 /
b100111110111110001001001100011 %"
b11101 C
b11101 U
b11101 y
b10 @
b10 Q
b10 {
0X
b0 A
b0 S
b0 z
b1000000000111010010011 E
b1000000000111010010011 Z
b1000000000111010010011 x
b100100 D
b100100 [
b100100 w
b10 '
b101000 >
b101000 a
b101000 r
b101000 6
b101000 j
b101000 ~
b1100000000000110010011 ?
b1100000000000110010011 b
b1100000000000110010011 s
b1100000000000110010011 7
b1100000000000110010011 i
b1100000000000110010011 !"
b101100 4
b101100 }
b101100 #"
b101100 +
b101100 .
b101100 3
b101100 ""
b101100 2
b101100 &"
b101100 ("
1(
#240
0(
#250
b10 =
b10 m
b10 t
b10 0
b10 c
b10 ."
b10 1
b10 e
b10 -"
0;
b0 8
b0 q
b0 v
b10 <
b10 n
b10 u
b11101 9
b11101 p
b11101 *"
b11110 :
b11110 o
b11110 )"
b100000000010 Y
b1100000000000010010011 5
b1100000000000010010011 |
b1100000000000010010011 $"
b1100000000000010010011 ,
b1100000000000010010011 -
b1100000000000010010011 /
b1100000000000010010011 %"
b10011 k
b11101 d
b11110 f
b1 l
b100 g
b1100011 h
b11 R
b11 V
b11 G
b11 `
b11 ,"
b11 H
b11 _
b11 +"
b110000 4
b110000 }
b110000 #"
b110000 +
b110000 .
b110000 3
b110000 ""
b110000 2
b110000 &"
b110000 ("
b101100 >
b101100 a
b101100 r
b101100 6
b101100 j
b101100 ~
b100111110111110001001001100011 ?
b100111110111110001001001100011 b
b100111110111110001001001100011 s
b100111110111110001001001100011 7
b100111110111110001001001100011 i
b100111110111110001001001100011 !"
b10 %
b11 C
b11 U
b11 y
b11 @
b11 Q
b11 {
b1100000000000110010011 E
b1100000000000110010011 Z
b1100000000000110010011 x
b101000 D
b101000 [
b101000 w
1(
#260
0(
#270
b0 =
b0 m
b0 t
b1001100100 Y
b0 0
b0 c
b0 ."
b0 1
b0 e
b0 -"
1;
b1 8
b1 q
b1 v
b11 <
b11 n
b11 u
b0 9
b0 p
b0 *"
b0 :
b0 o
b0 )"
b10011 \
b11101 R
b11110 T
b1 ]
b100 V
b1100011 W
0F
b0 G
b0 `
b0 ,"
b0 H
b0 _
b0 +"
b0 k
b11 d
b0 f
b0 l
b1 g
b10011 h
b11100001000111100010011 5
b11100001000111100010011 |
b11100001000111100010011 $"
b11100001000111100010011 ,
b11100001000111100010011 -
b11100001000111100010011 /
b11100001000111100010011 %"
0B
b0 C
b0 U
b0 y
1X
b10 @
b10 Q
b10 {
b10 A
b10 S
b10 z
b100111110111110001001001100011 E
b100111110111110001001001100011 Z
b100111110111110001001001100011 x
b101100 D
b101100 [
b101100 w
b11 &
b110000 >
b110000 a
b110000 r
b110000 6
b110000 j
b110000 ~
b1100000000000010010011 ?
b1100000000000010010011 b
b1100000000000010010011 s
b1100000000000010010011 7
b1100000000000010010011 i
b1100000000000010010011 !"
b110100 4
b110100 }
b110100 #"
b110100 +
b110100 .
b110100 3
b110100 ""
b110100 2
b110100 &"
b110100 ("
1(
#280
0(
#290
b11 =
b11 m
b11 t
b11 1
b11 e
b11 -"
b11110 8
b11110 q
b11110 v
b111 <
b111 n
b111 u
b1 :
b1 o
b1 )"
b100000000000 Y
1F
b11 G
b11 `
b11 ,"
b1 H
b1 _
b1 +"
0N
b101000000000111010010011 5
b101000000000111010010011 |
b101000000000111010010011 $"
b101000000000111010010011 ,
b101000000000111010010011 -
b101000000000111010010011 /
b101000000000111010010011 %"
b111 d
b1 f
b11110 g
b0 \
b11 R
b0 T
b0 ]
b1 V
b10011 W
0L
0I
b0 M
b0 O
b0 '"
b0 J
b0 P
b0 ^
b111000 4
b111000 }
b111000 #"
b111000 +
b111000 .
b111000 3
b111000 ""
b111000 2
b111000 &"
b111000 ("
b110100 >
b110100 a
b110100 r
b110100 6
b110100 j
b110100 ~
b11100001000111100010011 ?
b11100001000111100010011 b
b11100001000111100010011 s
b11100001000111100010011 7
b11100001000111100010011 i
b11100001000111100010011 !"
1B
b1 C
b1 U
b1 y
b11 @
b11 Q
b11 {
0X
b0 A
b0 S
b0 z
b1100000000000010010011 E
b1100000000000010010011 Z
b1100000000000010010011 x
b110000 D
b110000 [
b110000 w
1(
#300
0(
#310
b0 =
b0 m
b0 t
b11110 Y
b0 1
b0 e
b0 -"
b11101 8
b11101 q
b11101 v
b1010 <
b1010 n
b1010 u
b0 :
b0 o
b0 )"
b111 R
b1 T
b11110 V
b1010 G
b1010 `
b1010 ,"
b11110 H
b11110 _
b11110 +"
b1010 d
b0 f
b11101 g
b10000000000000110010011 5
b10000000000000110010011 |
b10000000000000110010011 $"
b10000000000000110010011 ,
b10000000000000110010011 -
b10000000000000110010011 /
b10000000000000110010011 %"
b11110 C
b11110 U
b11110 y
b111 @
b111 Q
b111 {
0X
b11 A
b11 S
b11 z
b11100001000111100010011 E
b11100001000111100010011 Z
b11100001000111100010011 x
b110100 D
b110100 [
b110100 w
b11 !
b111000 >
b111000 a
b111000 r
b111000 6
b111000 j
b111000 ~
b101000000000111010010011 ?
b101000000000111010010011 b
b101000000000111010010011 s
b101000000000111010010011 7
b101000000000111010010011 i
b101000000000111010010011 !"
b111100 4
b111100 }
b111100 #"
b111100 +
b111100 .
b111100 3
b111100 ""
b111100 2
b111100 &"
b111100 ("
1(
#320
0(
#330
b11 8
b11 q
b11 v
b100 <
b100 n
b100 u
b100000011100 Y
b100101110111110001100001100011 5
b100101110111110001100001100011 |
b100101110111110001100001100011 $"
b100101110111110001100001100011 ,
b100101110111110001100001100011 -
b100101110111110001100001100011 /
b100101110111110001100001100011 %"
b100 d
b11 g
b1010 R
b0 T
b11101 V
b11101 H
b11101 _
b11101 +"
b1000000 4
b1000000 }
b1000000 #"
b1000000 +
b1000000 .
b1000000 3
b1000000 ""
b1000000 2
b1000000 &"
b1000000 ("
b111100 >
b111100 a
b111100 r
b111100 6
b111100 j
b111100 ~
b10000000000000110010011 ?
b10000000000000110010011 b
b10000000000000110010011 s
b10000000000000110010011 7
b10000000000000110010011 i
b10000000000000110010011 !"
b1010 '
b11101 C
b11101 U
b11101 y
b1010 @
b1010 Q
b1010 {
b0 A
b0 S
b0 z
b101000000000111010010011 E
b101000000000111010010011 Z
b101000000000111010010011 x
b111000 D
b111000 [
b111000 w
1(
#340
0(
#350
b1010 =
b1010 m
b1010 t
b100000000010 Y
b1010 0
b1010 c
b1010 ."
b1010 1
b1010 e
b1010 -"
0;
b0 8
b0 q
b0 v
b1010 <
b1010 n
b1010 u
b11101 9
b11101 p
b11101 *"
b11110 :
b11110 o
b11110 )"
b100 R
b11 V
b100 G
b100 `
b100 ,"
b11 H
b11 _
b11 +"
b10010 k
b11101 d
b11110 f
b1 l
b10000 g
b1100011 h
b10010011 5
b10010011 |
b10010011 $"
b10010011 ,
b10010011 -
b10010011 /
b10010011 %"
b11 C
b11 U
b11 y
b100 @
b100 Q
b100 {
b10000000000000110010011 E
b10000000000000110010011 Z
b10000000000000110010011 x
b111100 D
b111100 [
b111100 w
b1010 %
b1000000 >
b1000000 a
b1000000 r
b1000000 6
b1000000 j
b1000000 ~
b100101110111110001100001100011 ?
b100101110111110001100001100011 b
b100101110111110001100001100011 s
b100101110111110001100001100011 7
b100101110111110001100001100011 i
b100101110111110001100001100011 !"
b1000100 4
b1000100 }
b1000100 #"
b1000100 +
b1000100 .
b1000100 3
b1000100 ""
b1000100 2
b1000100 &"
b1000100 ("
1(
#360
0(
#370
b0 =
b0 m
b0 t
b0 0
b0 c
b0 ."
b0 1
b0 e
b0 -"
1;
b1 8
b1 q
b1 v
b0 <
b0 n
b0 u
b0 9
b0 p
b0 *"
b0 :
b0 o
b0 )"
b1001010000 Y
b10000000000000001000111100010011 5
b10000000000000001000111100010011 |
b10000000000000001000111100010011 $"
b10000000000000001000111100010011 ,
b10000000000000001000111100010011 -
b10000000000000001000111100010011 /
b10000000000000001000111100010011 %"
b0 k
b0 d
b0 f
b0 l
b1 g
b10011 h
b10010 \
b11101 R
b11110 T
b1 ]
b10000 V
b1100011 W
0F
b0 G
b0 `
b0 ,"
b0 H
b0 _
b0 +"
b1001000 4
b1001000 }
b1001000 #"
b1001000 +
b1001000 .
b1001000 3
b1001000 ""
b1001000 2
b1001000 &"
b1001000 ("
b1000100 >
b1000100 a
b1000100 r
b1000100 6
b1000100 j
b1000100 ~
b10010011 ?
b10010011 b
b10010011 s
b10010011 7
b10010011 i
b10010011 !"
b100 &
0B
b0 C
b0 U
b0 y
1X
b1010 @
b1010 Q
b1010 {
b1010 A
b1010 S
b1010 z
b100101110111110001100001100011 E
b100101110111110001100001100011 Z
b100101110111110001100001100011 x
b1000000 D
b1000000 [
b1000000 w
1(
#380
0(
#390
b100000000000 Y
1F
b1 H
b1 _
b1 +"
b11110 8
b11110 q
b11110 v
b11111111111111111111100000000000 <
b11111111111111111111100000000000 n
b11111111111111111111100000000000 u
b1 :
b1 o
b1 )"
b0 \
b0 R
b0 T
b0 ]
b1 V
b10011 W
b1000000 k
b1 f
b11110 g
b10000000000000000000111010010011 5
b10000000000000000000111010010011 |
b10000000000000000000111010010011 $"
b10000000000000000000111010010011 ,
b10000000000000000000111010010011 -
b10000000000000000000111010010011 /
b10000000000000000000111010010011 %"
1B
b1 C
b1 U
b1 y
b0 @
b0 Q
b0 {
1X
b0 A
b0 S
b0 z
b10010011 E
b10010011 Z
b10010011 x
b1000100 D
b1000100 [
b1000100 w
b1001000 >
b1001000 a
b1001000 r
b1001000 6
b1001000 j
b1001000 ~
b10000000000000001000111100010011 ?
b10000000000000001000111100010011 b
b10000000000000001000111100010011 s
b10000000000000001000111100010011 7
b10000000000000001000111100010011 i
b10000000000000001000111100010011 !"
b1001100 4
b1001100 }
b1001100 #"
b1001100 +
b1001100 .
b1001100 3
b1001100 ""
b1001100 2
b1001100 &"
b1001100 ("
1(
#400
0(
#410
b11101 8
b11101 q
b11101 v
b0 :
b0 o
b0 )"
b11111111111111111111000000011110 Y
b10100000000000110010011 5
b10100000000000110010011 |
b10100000000000110010011 $"
b10100000000000110010011 ,
b10100000000000110010011 -
b10100000000000110010011 /
b10100000000000110010011 %"
b0 f
b11101 g
b1000000 \
b1 T
b11110 V
b11111111111111111111100000000000 G
b11111111111111111111100000000000 `
b11111111111111111111100000000000 ,"
b11110 H
b11110 _
b11110 +"
b1010000 4
b1010000 }
b1010000 #"
b1010000 +
b1010000 .
b1010000 3
b1010000 ""
b1010000 2
b1010000 &"
b1010000 ("
b1001100 >
b1001100 a
b1001100 r
b1001100 6
b1001100 j
b1001100 ~
b10000000000000000000111010010011 ?
b10000000000000000000111010010011 b
b10000000000000000000111010010011 s
b10000000000000000000111010010011 7
b10000000000000000000111010010011 i
b10000000000000000000111010010011 !"
b0 !
b11110 C
b11110 U
b11110 y
0X
b11111111111111111111100000000000 @
b11111111111111111111100000000000 Q
b11111111111111111111100000000000 {
b10000000000000001000111100010011 E
b10000000000000001000111100010011 Z
b10000000000000001000111100010011 x
b1001000 D
b1001000 [
b1001000 w
1(
#420
0(
#430
b11111111111111111111100000011100 Y
b11 8
b11 q
b11 v
b101 <
b101 n
b101 u
b0 T
b11101 V
b11101 H
b11101 _
b11101 +"
b0 k
b101 d
b11 g
b100011110111110001111001100011 5
b100011110111110001111001100011 |
b100011110111110001111001100011 $"
b100011110111110001111001100011 ,
b100011110111110001111001100011 -
b100011110111110001111001100011 /
b100011110111110001111001100011 %"
b11101 C
b11101 U
b11101 y
b10000000000000000000111010010011 E
b10000000000000000000111010010011 Z
b10000000000000000000111010010011 x
b1001100 D
b1001100 [
b1001100 w
b11111111111111111111100000000000 '
b1010000 >
b1010000 a
b1010000 r
b1010000 6
b1010000 j
b1010000 ~
b10100000000000110010011 ?
b10100000000000110010011 b
b10100000000000110010011 s
b10100000000000110010011 7
b10100000000000110010011 i
b10100000000000110010011 !"
b1010100 4
b1010100 }
b1010100 #"
b1010100 +
b1010100 .
b1010100 3
b1010100 ""
b1010100 2
b1010100 &"
b1010100 ("
1(
#440
0(
